﻿Log file open, 03/25/23 13:20:14
LogWindows: Failed to load 'aqProf.dll' (GetLastError=126)
LogWindows: File 'aqProf.dll' does not exist
LogProfilingDebugging: Loading WinPixEventRuntime.dll for PIX profiling (from ../../../Engine/Binaries/ThirdParty/Windows/WinPixEventRuntime/x64).
LogWindows: Failed to load 'VtuneApi.dll' (GetLastError=126)
LogWindows: File 'VtuneApi.dll' does not exist
LogWindows: Failed to load 'VtuneApi32e.dll' (GetLastError=126)
LogWindows: File 'VtuneApi32e.dll' does not exist
LogWindows: Started CrashReportClient (pid=17116)
LogConsoleResponse: Display: Failed to find resolution value strings in scalability ini. Falling back to default.
LogConsoleResponse: Display: Failed to find resolution value strings in scalability ini. Falling back to default.
LogInit: Display: Running engine for game: MyProject2
LogCore: UnrealTraceServer: Trace store launch successful
LogCsvProfiler: Display: Metadata set : platform="Windows"
LogCsvProfiler: Display: Metadata set : config="Development"
LogCsvProfiler: Display: Metadata set : buildversion="++UE5+Release-5.0-CL-19764885"
LogCsvProfiler: Display: Metadata set : engineversion="5.0.1-19764885+++UE5+Release-5.0"
LogCsvProfiler: Display: Metadata set : commandline="" "C:/Users/admin/Documents/Unreal Projects/MyProject2/MyProject2.uproject"""
LogCsvProfiler: Display: Metadata set : os="Windows 10 (22H2) "
LogCsvProfiler: Display: Metadata set : cpu="GenuineIntel|Intel(R) Core(TM) i5-8400 CPU @ 2.80GHz"
LogCsvProfiler: Display: Metadata set : pgoenabled="0"
LogCsvProfiler: Display: Metadata set : loginid="aa7839914ea473d16f5d5e8df90c7da9"
LogCsvProfiler: Display: Metadata set : llm="0"
LogPlatformFile: Not using cached read wrapper
LogStats: Stats thread started at 0.291133
LogICUInternationalization: ICU TimeZone Detection - Raw Offset: +1:00, Platform Override: ''
LogInit: Session CrashGUID >====================================================
         Session CrashGUID >   UECC-Windows-7D97E5174D872FCD97C4DEAB34DB945F
         Session CrashGUID >====================================================
LogConfig: Display: Loading HoloLens ini files took 0.02 seconds
LogConfig: Display: Loading Android ini files took 0.02 seconds
LogConfig: Display: Loading IOS ini files took 0.02 seconds
LogConfig: Display: Loading Mac ini files took 0.02 seconds
LogConfig: Display: Loading Linux ini files took 0.04 seconds
LogConfig: Display: Loading LinuxArm64 ini files took 0.04 seconds
LogConfig: Display: Loading TVOS ini files took 0.03 seconds
LogConfig: Display: Loading VulkanPC ini files took 0.02 seconds
LogPluginManager: Mounting Engine plugin Bridge
LogConfig: Display: Loading Unix ini files took 0.03 seconds
LogPluginManager: Mounting Engine plugin FastBuildController
LogPluginManager: Mounting Engine plugin MeshPainting
LogPluginManager: Mounting Engine plugin XGEController
LogPluginManager: Mounting Engine plugin AISupport
LogPluginManager: Mounting Engine plugin Paper2D
LogConfig: Display: Loading Windows ini files took 0.03 seconds
LogPluginManager: Mounting Engine plugin EnvironmentQueryEditor
LogPluginManager: Mounting Engine plugin AnimationModifierLibrary
LogPluginManager: Mounting Engine plugin BlendSpaceMotionAnalysis
LogPluginManager: Mounting Engine plugin ControlRigSpline
LogPluginManager: Mounting Engine plugin ControlRig
LogPluginManager: Mounting Engine plugin IKRig
LogPluginManager: Mounting Engine plugin CameraShakePreviewer
LogPluginManager: Mounting Engine plugin GameplayCameras
LogPluginManager: Mounting Engine plugin OodleNetwork
LogPluginManager: Mounting Engine plugin AnimationSharing
LogPluginManager: Mounting Engine plugin CLionSourceCodeAccess
LogPluginManager: Mounting Engine plugin CodeLiteSourceCodeAccess
LogPluginManager: Mounting Engine plugin GitSourceControl
LogPluginManager: Mounting Engine plugin KDevelopSourceCodeAccess
LogPluginManager: Mounting Engine plugin NullSourceCodeAccess
LogPluginManager: Mounting Engine plugin PerforceSourceControl
LogPluginManager: Mounting Engine plugin PixWinPlugin
LogPluginManager: Mounting Engine plugin PlasticSourceControl
LogPluginManager: Mounting Engine plugin PluginUtils
LogPluginManager: Mounting Engine plugin PropertyAccessNode
LogPluginManager: Mounting Engine plugin RiderSourceCodeAccess
LogPluginManager: Mounting Engine plugin SubversionSourceControl
LogPluginManager: Mounting Engine plugin TextureFormatOodle
LogPluginManager: Mounting Engine plugin TraceDataFilters
LogPluginManager: Mounting Engine plugin UObjectPlugin
LogPluginManager: Mounting Engine plugin VisualStudioCodeSourceCodeAccess
LogPluginManager: Mounting Engine plugin VisualStudioSourceCodeAccess
LogPluginManager: Mounting Engine plugin XCodeSourceCodeAccess
LogPluginManager: Mounting Engine plugin AssetManagerEditor
LogPluginManager: Mounting Engine plugin CryptoKeys
LogPluginManager: Mounting Engine plugin DataValidation
LogPluginManager: Mounting Engine plugin EditorDebugTools
LogPluginManager: Mounting Engine plugin EditorScriptingUtilities
LogPluginManager: Mounting Engine plugin FacialAnimation
LogPluginManager: Mounting Engine plugin GameplayTagsEditor
LogPluginManager: Mounting Engine plugin GeometryMode
LogPluginManager: Mounting Engine plugin MacGraphicsSwitching
LogPluginManager: Mounting Engine plugin MaterialAnalyzer
LogPluginManager: Mounting Engine plugin MobileLauncherProfileWizard
LogPluginManager: Mounting Engine plugin ModelingToolsEditorMode
LogPluginManager: Mounting Engine plugin PluginBrowser
LogPluginManager: Mounting Engine plugin SpeedTreeImporter
LogPluginManager: Mounting Engine plugin StylusInput
LogPluginManager: Mounting Engine plugin CurveEditorTools
LogPluginManager: Mounting Engine plugin WorldPartitionHLODUtilities
LogPluginManager: Mounting Engine plugin DatasmithContent
LogPluginManager: Mounting Engine plugin SequencerAnimTools
LogPluginManager: Mounting Engine plugin VariantManagerContent
LogPluginManager: Mounting Engine plugin AutomationUtils
LogPluginManager: Mounting Engine plugin BackChannel
LogPluginManager: Mounting Engine plugin ChaosCloth
LogPluginManager: Mounting Engine plugin ChaosClothEditor
LogPluginManager: Mounting Engine plugin ChaosEditor
LogPluginManager: Mounting Engine plugin ChaosNiagara
LogPluginManager: Mounting Engine plugin ChaosSolverPlugin
LogPluginManager: Mounting Engine plugin CharacterAI
LogPluginManager: Mounting Engine plugin FullBodyIK
LogPluginManager: Mounting Engine plugin GeometryCollectionPlugin
LogPluginManager: Mounting Engine plugin GeometryFlow
LogPluginManager: Mounting Engine plugin MeshLODToolset
LogPluginManager: Mounting Engine plugin MeshModelingToolsetExp
LogPluginManager: Mounting Engine plugin OpenImageDenoise
LogPluginManager: Mounting Engine plugin PlanarCut
LogPluginManager: Mounting Engine plugin PlatformCrypto
LogPluginManager: Mounting Engine plugin ProxyLODPlugin
LogPluginManager: Mounting Engine plugin PythonScriptPlugin
LogPluginManager: Mounting Engine plugin SkeletalReduction
LogPluginManager: Mounting Engine plugin Niagara
LogPluginManager: Mounting Engine plugin AlembicImporter
LogPluginManager: Mounting Engine plugin AndroidMedia
LogPluginManager: Mounting Engine plugin AvfMedia
LogPluginManager: Mounting Engine plugin ImgMedia
LogPluginManager: Mounting Engine plugin MediaCompositing
LogPluginManager: Mounting Engine plugin MediaPlayerEditor
LogPluginManager: Mounting Engine plugin WebMMedia
LogPluginManager: Mounting Engine plugin WmfMedia
LogPluginManager: Mounting Engine plugin TcpMessaging
LogPluginManager: Mounting Engine plugin UdpMessaging
LogPluginManager: Mounting Engine plugin ActorSequence
LogPluginManager: Mounting Engine plugin LevelSequenceEditor
LogPluginManager: Mounting Engine plugin MatineeToLevelSequence
LogPluginManager: Mounting Engine plugin SequencerScripting
LogPluginManager: Mounting Engine plugin TemplateSequence
LogPluginManager: Mounting Engine plugin OnlineBase
LogPluginManager: Mounting Engine plugin OnlineSubsystem
LogPluginManager: Mounting Engine plugin OnlineSubsystemNull
LogPluginManager: Mounting Engine plugin OnlineSubsystemUtils
LogPluginManager: Mounting Engine plugin LauncherChunkInstaller
LogPluginManager: Mounting Engine plugin ActorLayerUtilities
LogPluginManager: Mounting Engine plugin AndroidDeviceProfileSelector
LogPluginManager: Mounting Engine plugin AndroidFileServer
LogPluginManager: Mounting Engine plugin AndroidMoviePlayer
LogPluginManager: Mounting Engine plugin AndroidPermission
LogPluginManager: Mounting Engine plugin AppleImageUtils
LogPluginManager: Mounting Engine plugin AppleMoviePlayer
LogPluginManager: Mounting Engine plugin ArchVisCharacter
LogPluginManager: Mounting Engine plugin AssetTags
LogPluginManager: Mounting Engine plugin AudioCapture
LogPluginManager: Mounting Engine plugin AudioSynesthesia
LogPluginManager: Mounting Engine plugin CableComponent
LogPluginManager: Mounting Engine plugin ChunkDownloader
LogPluginManager: Mounting Engine plugin CustomMeshComponent
LogPluginManager: Mounting Engine plugin ExampleDeviceProfileSelector
LogPluginManager: Mounting Engine plugin GeometryCache
LogPluginManager: Mounting Engine plugin GeometryProcessing
LogPluginManager: Mounting Engine plugin GoogleCloudMessaging
LogPluginManager: Mounting Engine plugin GooglePAD
LogPluginManager: Mounting Engine plugin HairStrands
LogPluginManager: Mounting Engine plugin IOSDeviceProfileSelector
LogPluginManager: Mounting Engine plugin LinuxDeviceProfileSelector
LogPluginManager: Mounting Engine plugin LocationServicesBPLibrary
LogPluginManager: Mounting Engine plugin MeshModelingToolset
LogPluginManager: Mounting Engine plugin MobilePatchingUtils
LogPluginManager: Mounting Engine plugin ProceduralMeshComponent
LogPluginManager: Mounting Engine plugin PropertyAccessEditor
LogPluginManager: Mounting Engine plugin ResonanceAudio
LogPluginManager: Mounting Engine plugin RuntimePhysXCooking
LogPluginManager: Mounting Engine plugin SignificanceManager
LogPluginManager: Mounting Engine plugin SoundFields
LogPluginManager: Mounting Engine plugin Synthesis
LogPluginManager: Mounting Engine plugin WebMMoviePlayer
LogPluginManager: Mounting Engine plugin WindowsDeviceProfileSelector
LogPluginManager: Mounting Engine plugin WindowsMoviePlayer
LogPluginManager: Mounting Engine plugin ContentBrowserAssetDataSource
LogPluginManager: Mounting Engine plugin ContentBrowserClassDataSource
LogPluginManager: Mounting Engine plugin ContentBrowserFileDataSource
LogPluginManager: Mounting Engine plugin InterchangeEditor
LogPluginManager: Mounting Engine plugin Interchange
LogPluginManager: Mounting Engine plugin OnlineSubsystemGooglePlay
LogPluginManager: Mounting Engine plugin OnlineServices
LogPluginManager: Mounting Engine plugin OnlineSubsystemIOS
LogPackageName: Display: FPackageName: Mount point added: '../../Plugins/Bridge/Content/' mounted to '/Bridge/'
LogPackageName: Display: FPackageName: Mount point added: '../../Plugins/2D/Paper2D/Content/' mounted to '/Paper2D/'
LogPackageName: Display: FPackageName: Mount point added: '../../Plugins/Animation/ControlRigSpline/Content/' mounted to '/ControlRigSpline/'
LogPackageName: Display: FPackageName: Mount point added: '../../Plugins/Animation/ControlRig/Content/' mounted to '/ControlRig/'
LogPackageName: Display: FPackageName: Mount point added: '../../Plugins/Animation/IKRig/Content/' mounted to '/IKRig/'
LogPackageName: Display: FPackageName: Mount point added: '../../Plugins/Developer/AnimationSharing/Content/' mounted to '/AnimationSharing/'
LogPackageName: Display: FPackageName: Mount point added: '../../Plugins/Editor/GeometryMode/Content/' mounted to '/GeometryMode/'
LogPackageName: Display: FPackageName: Mount point added: '../../Plugins/Editor/ModelingToolsEditorMode/Content/' mounted to '/ModelingToolsEditorMode/'
LogPackageName: Display: FPackageName: Mount point added: '../../Plugins/Editor/SpeedTreeImporter/Content/' mounted to '/SpeedTreeImporter/'
LogPackageName: Display: FPackageName: Mount point added: '../../Plugins/Enterprise/DatasmithContent/Content/' mounted to '/DatasmithContent/'
LogPackageName: Display: FPackageName: Mount point added: '../../Plugins/Experimental/ChaosClothEditor/Content/' mounted to '/ChaosClothEditor/'
LogPackageName: Display: FPackageName: Mount point added: '../../Plugins/Experimental/ChaosNiagara/Content/' mounted to '/ChaosNiagara/'
LogPackageName: Display: FPackageName: Mount point added: '../../Plugins/Experimental/ChaosSolverPlugin/Content/' mounted to '/ChaosSolverPlugin/'
LogPackageName: Display: FPackageName: Mount point added: '../../Plugins/Experimental/FullBodyIK/Content/' mounted to '/FullBodyIK/'
LogPackageName: Display: FPackageName: Mount point added: '../../Plugins/Experimental/GeometryCollectionPlugin/Content/' mounted to '/GeometryCollectionPlugin/'
LogPackageName: Display: FPackageName: Mount point added: '../../Plugins/Experimental/GeometryFlow/Content/' mounted to '/GeometryFlow/'
LogPackageName: Display: FPackageName: Mount point added: '../../Plugins/Experimental/MeshLODToolset/Content/' mounted to '/MeshLODToolset/'
LogPackageName: Display: FPackageName: Mount point added: '../../Plugins/Experimental/MeshModelingToolsetExp/Content/' mounted to '/MeshModelingToolsetExp/'
LogPackageName: Display: FPackageName: Mount point added: '../../Plugins/Experimental/PythonScriptPlugin/Content/' mounted to '/PythonScriptPlugin/'
LogPackageName: Display: FPackageName: Mount point added: '../../Plugins/FX/Niagara/Content/' mounted to '/Niagara/'
LogPackageName: Display: FPackageName: Mount point added: '../../Plugins/Media/MediaCompositing/Content/' mounted to '/MediaCompositing/'
LogPackageName: Display: FPackageName: Mount point added: '../../Plugins/MovieScene/SequencerScripting/Content/' mounted to '/SequencerScripting/'
LogPackageName: Display: FPackageName: Mount point added: '../../Plugins/Runtime/AudioSynesthesia/Content/' mounted to '/AudioSynesthesia/'
LogPackageName: Display: FPackageName: Mount point added: '../../Plugins/Runtime/GeometryProcessing/Content/' mounted to '/GeometryProcessing/'
LogPackageName: Display: FPackageName: Mount point added: '../../Plugins/Runtime/HairStrands/Content/' mounted to '/HairStrands/'
LogPackageName: Display: FPackageName: Mount point added: '../../Plugins/Runtime/MeshModelingToolset/Content/' mounted to '/MeshModelingToolset/'
LogPackageName: Display: FPackageName: Mount point added: '../../Plugins/Runtime/ResonanceAudio/Content/' mounted to '/ResonanceAudio/'
LogPackageName: Display: FPackageName: Mount point added: '../../Plugins/Runtime/Synthesis/Content/' mounted to '/Synthesis/'
SourceControl: Source control is disabled
SourceControl: Source control is disabled
PixWinPlugin: PIX capture plugin failed to initialize! Check that the process is launched from PIX.
LogInit: Using libcurl 7.55.1-DEV
LogInit:  - built for x86_64-pc-win32
LogInit:  - supports SSL with OpenSSL/1.1.1
LogInit:  - supports HTTP deflate (compression) using libz 1.2.8
LogInit:  - other features:
LogInit:      CURL_VERSION_SSL
LogInit:      CURL_VERSION_LIBZ
LogInit:      CURL_VERSION_IPV6
LogInit:      CURL_VERSION_ASYNCHDNS
LogInit:      CURL_VERSION_LARGEFILE
LogInit:      CURL_VERSION_IDN
LogInit:  CurlRequestOptions (configurable via config and command line):
LogInit:  - bVerifyPeer = true  - Libcurl will verify peer certificate
LogInit:  - bUseHttpProxy = false  - Libcurl will NOT use HTTP proxy
LogInit:  - bDontReuseConnections = false  - Libcurl will reuse connections
LogInit:  - MaxHostConnections = 16  - Libcurl will limit the number of connections to a host
LogInit:  - LocalHostAddr = Default
LogInit:  - BufferSize = 65536
LogInit: WinSock: version 1.1 (2.2), MaxSocks=32767, MaxUdp=65467
LogOnline: OSS: Created online subsystem instance for: NULL
LogOnline: OSS: TryLoadSubsystemAndSetDefault: Loaded subsystem for module [NULL]
LogInit: Build: ++UE5+Release-5.0-CL-19764885
LogInit: Engine Version: 5.0.1-19764885+++UE5+Release-5.0
LogInit: Compatible Engine Version: 5.0.0-19505902+++UE5+Release-5.0
LogInit: Net CL: 19505902
LogInit: OS: Windows 10 (22H2) (), CPU: Intel(R) Core(TM) i5-8400 CPU @ 2.80GHz, GPU: NVIDIA GeForce GTX 1060 6GB
LogInit: Compiled (64-bit): Apr 15 2022 04:06:52
LogInit: Compiled with Visual C++: 19.29.30138.00
LogInit: Build Configuration: Development
LogInit: Branch Name: ++UE5+Release-5.0
LogInit: Command Line: 
LogInit: Base Directory: D:/Games/Dauntless/Spellbreak/UE_5.0/Engine/Binaries/Win64/
LogInit: Allocator: Mimalloc
LogInit: Installed Engine Build: 1
LogDevObjectVersion: Number of dev versions registered: 34
LogDevObjectVersion:   Dev-Blueprints (B0D832E4-1F89-4F0D-ACCF-7EB736FD4AA2): 10
LogDevObjectVersion:   Dev-Build (E1C64328-A22C-4D53-A36C-8E866417BD8C): 0
LogDevObjectVersion:   Dev-Core (375EC13C-06E4-48FB-B500-84F0262A717E): 4
LogDevObjectVersion:   Dev-Editor (E4B068ED-F494-42E9-A231-DA0B2E46BB41): 40
LogDevObjectVersion:   Dev-Framework (CFFC743F-43B0-4480-9391-14DF171D2073): 37
LogDevObjectVersion:   Dev-Mobile (B02B49B5-BB20-44E9-A304-32B752E40360): 3
LogDevObjectVersion:   Dev-Networking (A4E4105C-59A1-49B5-A7C5-40C4547EDFEE): 0
LogDevObjectVersion:   Dev-Online (39C831C9-5AE6-47DC-9A44-9C173E1C8E7C): 0
LogDevObjectVersion:   Dev-Physics (78F01B33-EBEA-4F98-B9B4-84EACCB95AA2): 20
LogDevObjectVersion:   Dev-Platform (6631380F-2D4D-43E0-8009-CF276956A95A): 0
LogDevObjectVersion:   Dev-Rendering (12F88B9F-8875-4AFC-A67C-D90C383ABD29): 45
LogDevObjectVersion:   Dev-Sequencer (7B5AE74C-D270-4C10-A958-57980B212A5A): 13
LogDevObjectVersion:   Dev-VR (D7296918-1DD6-4BDD-9DE2-64A83CC13884): 3
LogDevObjectVersion:   Dev-LoadTimes (C2A15278-BFE7-4AFE-6C17-90FF531DF755): 1
LogDevObjectVersion:   Private-Geometry (6EACA3D4-40EC-4CC1-B786-8BED09428FC5): 3
LogDevObjectVersion:   Dev-AnimPhys (29E575DD-E0A3-4627-9D10-D276232CDCEA): 17
LogDevObjectVersion:   Dev-Anim (AF43A65D-7FD3-4947-9873-3E8ED9C1BB05): 15
LogDevObjectVersion:   Dev-ReflectionCapture (6B266CEC-1EC7-4B8F-A30B-E4D90942FC07): 1
LogDevObjectVersion:   Dev-Automation (0DF73D61-A23F-47EA-B727-89E90C41499A): 1
LogDevObjectVersion:   FortniteMain (601D1886-AC64-4F84-AA16-D3DE0DEAC7D6): 59
LogDevObjectVersion:   FortniteRelease (E7086368-6B23-4C58-8439-1B7016265E91): 3
LogDevObjectVersion:   Dev-Enterprise (9DFFBCD6-494F-0158-E221-12823C92A888): 10
LogDevObjectVersion:   Dev-Niagara (F2AED0AC-9AFE-416F-8664-AA7FFA26D6FC): 1
LogDevObjectVersion:   Dev-Destruction (174F1F0B-B4C6-45A5-B13F-2EE8D0FB917D): 10
LogDevObjectVersion:   Dev-Physics-Ext (35F94A83-E258-406C-A318-09F59610247C): 41
LogDevObjectVersion:   Dev-PhysicsMaterial-Chaos (B68FC16E-8B1B-42E2-B453-215C058844FE): 1
LogDevObjectVersion:   Dev-CineCamera (B2E18506-4273-CFC2-A54E-F4BB758BBA07): 1
LogDevObjectVersion:   Dev-VirtualProduction (64F58936-FD1B-42BA-BA96-7289D5D0FA4E): 1
LogDevObjectVersion:   UE5-Main (697DD581-E64F-41AB-AA4A-51ECBEB7B628): 59
LogDevObjectVersion:   UE5-Release (D89B5E42-24BD-4D46-8412-ACA8DF641779): 36
LogDevObjectVersion:   UE5-PrivateFrosty (59DA5D52-1232-4948-B878-597870B8E98B): 8
LogDevObjectVersion:   UE5-Dev-Cooker (26075A32-730F-4708-88E9-8C32F1599D05): 0
LogDevObjectVersion:   Dev-MediaFramework (6F0ED827-A609-4895-9C91-998D90180EA4): 2
LogDevObjectVersion:   UE5-Dev-LWCRendering (30D58BE3-95EA-4282-A6E3-B159D8EBB06A): 1
LogInit: Presizing for max 25165824 objects, including 0 objects not considered by GC, pre-allocating 0 bytes for permanent pool.
LogInit: Object subsystem initialized
LogConfig: CVar [[con.DebugLateDefault:1]] deferred - dummy variable created
LogConfig: CVar [[con.DebugLateCheat:1]] deferred - dummy variable created
LogConfig: CVar [[r.DetectAndWarnOfBadDrivers:0]] deferred - dummy variable created
LogConfig: CVar [[LogNamedEventFilters:Frame *]] deferred - dummy variable created
LogConfig: CVar [[framepro.ScopeMinTimeMicroseconds:10]] deferred - dummy variable created
LogConfig: CVar [[QualityLevelMapping:high]] deferred - dummy variable created
[2023.03.25-12.20.14:973][  0]LogConfig: Applying CVar settings from Section [/Script/Engine.RendererSettings] File [Engine]
[2023.03.25-12.20.14:973][  0]LogConfig: CVar [[VisualizeCalibrationColorMaterialPath:/Engine/EngineMaterials/PPM_DefaultCalibrationColor.PPM_DefaultCalibrationColor]] deferred - dummy variable created
[2023.03.25-12.20.14:973][  0]LogConfig: CVar [[VisualizeCalibrationGrayscaleMaterialPath:/Engine/EngineMaterials/PPM_DefaultCalibrationGrayscale.PPM_DefaultCalibrationGrayscale]] deferred - dummy variable created
[2023.03.25-12.20.14:973][  0]LogConfig: CVar [[MaxSkinBones:(Default=65536,PerPlatform=(("Mobile", 256)))]] deferred - dummy variable created
[2023.03.25-12.20.14:973][  0]LogConfig: Applying CVar settings from Section [/Script/Engine.RendererOverrideSettings] File [Engine]
[2023.03.25-12.20.14:973][  0]LogConfig: Applying CVar settings from Section [/Script/Engine.StreamingSettings] File [Engine]
[2023.03.25-12.20.14:973][  0]LogConfig: CVar [[s.MaxPackageSummarySize:16384]] deferred - dummy variable created
[2023.03.25-12.20.14:973][  0]LogConfig: CVar [[FixedBootOrder:/Script/Engine/Default__SoundBase]] deferred - dummy variable created
[2023.03.25-12.20.14:973][  0]LogConfig: CVar [[FixedBootOrder:/Script/Engine/Default__MaterialInterface]] deferred - dummy variable created
[2023.03.25-12.20.14:973][  0]LogConfig: CVar [[FixedBootOrder:/Script/Engine/Default__DeviceProfileManager]] deferred - dummy variable created
[2023.03.25-12.20.14:973][  0]LogConfig: Applying CVar settings from Section [/Script/Engine.GarbageCollectionSettings] File [Engine]
[2023.03.25-12.20.14:973][  0]LogConfig: Applying CVar settings from Section [/Script/Engine.NetworkSettings] File [Engine]
[2023.03.25-12.20.14:973][  0]LogConfig: CVar [[NetworkEmulationProfiles:(ProfileName="Average",ToolTip="Simulates average internet conditions")]] deferred - dummy variable created
[2023.03.25-12.20.14:973][  0]LogConfig: CVar [[NetworkEmulationProfiles:(ProfileName="Bad",ToolTip="Simulates laggy internet conditions")]] deferred - dummy variable created
[2023.03.25-12.20.14:973][  0]LogConfig: Applying CVar settings from Section [/Script/UnrealEd.CookerSettings] File [Engine]
[2023.03.25-12.20.14:973][  0]LogConfig: CVar [[DefaultPVRTCQuality:1]] deferred - dummy variable created
[2023.03.25-12.20.14:973][  0]LogConfig: CVar [[DefaultASTCQualityBySpeed:1]] deferred - dummy variable created
[2023.03.25-12.20.14:973][  0]LogConfig: CVar [[DefaultASTCQualityBySize:3]] deferred - dummy variable created
[2023.03.25-12.20.14:973][  0]LogConfig: CVar [[ClassesExcludedOnDedicatedServer:WidgetBlueprint]] deferred - dummy variable created
[2023.03.25-12.20.14:973][  0]LogConfig: CVar [[ClassesExcludedOnDedicatedServer:GroupActor]] deferred - dummy variable created
[2023.03.25-12.20.14:973][  0]LogConfig: CVar [[ClassesExcludedOnDedicatedServer:MetaData]] deferred - dummy variable created
[2023.03.25-12.20.14:973][  0]LogConfig: CVar [[ClassesExcludedOnDedicatedServer:ObjectRedirector]] deferred - dummy variable created
[2023.03.25-12.20.14:973][  0]LogConfig: CVar [[ClassesExcludedOnDedicatedServer:NavMeshRenderingComponent]] deferred - dummy variable created
[2023.03.25-12.20.14:973][  0]LogConfig: CVar [[ClassesExcludedOnDedicatedServer:ReflectionCaptureComponent]] deferred - dummy variable created
[2023.03.25-12.20.14:973][  0]LogConfig: CVar [[ClassesExcludedOnDedicatedServer:TextRenderComponent]] deferred - dummy variable created
[2023.03.25-12.20.14:973][  0]LogConfig: CVar [[ClassesExcludedOnDedicatedServer:Font]] deferred - dummy variable created
[2023.03.25-12.20.14:973][  0]LogConfig: CVar [[ClassesExcludedOnDedicatedServer:InterpCurveEdSetup]] deferred - dummy variable created
[2023.03.25-12.20.14:973][  0]LogConfig: CVar [[ClassesExcludedOnDedicatedServer:MaterialExpression]] deferred - dummy variable created
[2023.03.25-12.20.14:973][  0]LogConfig: CVar [[ClassesExcludedOnDedicatedServer:MatineeActorCameraAnim]] deferred - dummy variable created
[2023.03.25-12.20.14:973][  0]LogConfig: CVar [[ClassesExcludedOnDedicatedServer:NiagaraEmitter]] deferred - dummy variable created
[2023.03.25-12.20.14:973][  0]LogConfig: CVar [[ClassesExcludedOnDedicatedServer:NiagaraScript]] deferred - dummy variable created
[2023.03.25-12.20.14:973][  0]LogConfig: CVar [[ClassesExcludedOnDedicatedServer:ParticleEmitter]] deferred - dummy variable created
[2023.03.25-12.20.14:973][  0]LogConfig: CVar [[ClassesExcludedOnDedicatedServer:ParticleLODLevel]] deferred - dummy variable created
[2023.03.25-12.20.14:973][  0]LogConfig: CVar [[ClassesExcludedOnDedicatedServer:ParticleModule]] deferred - dummy variable created
[2023.03.25-12.20.14:973][  0]LogConfig: CVar [[ClassesExcludedOnDedicatedServer:SubUVAnimation]] deferred - dummy variable created
[2023.03.25-12.20.14:973][  0]LogConfig: CVar [[ClassesExcludedOnDedicatedServer:SoundNode]] deferred - dummy variable created
[2023.03.25-12.20.14:973][  0]LogConfig: CVar [[ClassesExcludedOnDedicatedServer:GameplayEffectUIData]] deferred - dummy variable created
[2023.03.25-12.20.14:973][  0]LogConfig: CVar [[ClassesExcludedOnDedicatedClient:WidgetBlueprint]] deferred - dummy variable created
[2023.03.25-12.20.14:973][  0]LogConfig: CVar [[ClassesExcludedOnDedicatedClient:GroupActor]] deferred - dummy variable created
[2023.03.25-12.20.14:974][  0]LogConfig: CVar [[ClassesExcludedOnDedicatedClient:MetaData]] deferred - dummy variable created
[2023.03.25-12.20.14:974][  0]LogConfig: CVar [[ClassesExcludedOnDedicatedClient:ObjectRedirector]] deferred - dummy variable created
[2023.03.25-12.20.14:974][  0]LogConfig: CVar [[ClassesExcludedOnDedicatedClient:InterpCurveEdSetup]] deferred - dummy variable created
[2023.03.25-12.20.14:974][  0]LogConfig: CVar [[ClassesExcludedOnDedicatedClient:MatineeActorCameraAnim]] deferred - dummy variable created
[2023.03.25-12.20.14:974][  0]LogConfig: CVar [[VersionedIntRValues:r.AllowStaticLighting]] deferred - dummy variable created
[2023.03.25-12.20.14:974][  0]LogConfig: CVar [[VersionedIntRValues:r.GBuffer]] deferred - dummy variable created
[2023.03.25-12.20.14:974][  0]LogConfig: CVar [[VersionedIntRValues:r.VelocityOutputPass]] deferred - dummy variable created
[2023.03.25-12.20.14:974][  0]LogConfig: CVar [[VersionedIntRValues:r.SelectiveBasePassOutputs]] deferred - dummy variable created
[2023.03.25-12.20.14:974][  0]LogConfig: CVar [[VersionedIntRValues:r.DBuffer]] deferred - dummy variable created
[2023.03.25-12.20.14:974][  0]LogConfig: CVar [[VersionedIntRValues:r.Shaders.Symbols]] deferred - dummy variable created
[2023.03.25-12.20.14:974][  0]LogConfig: CVar [[VersionedIntRValues:r.Shaders.GenerateSymbols]] deferred - dummy variable created
[2023.03.25-12.20.14:974][  0]LogConfig: CVar [[VersionedIntRValues:r.Shaders.WriteSymbols]] deferred - dummy variable created
[2023.03.25-12.20.14:974][  0]LogConfig: CVar [[VersionedIntRValues:r.Shaders.AllowUniqueSymbols]] deferred - dummy variable created
[2023.03.25-12.20.14:974][  0]LogConfig: CVar [[VersionedIntRValues:r.Shaders.ExtraData]] deferred - dummy variable created
[2023.03.25-12.20.14:974][  0]LogConfig: CVar [[VersionedIntRValues:r.Shaders.Optimize]] deferred - dummy variable created
[2023.03.25-12.20.14:974][  0]LogConfig: CVar [[VersionedIntRValues:r.CompileShadersForDevelopment]] deferred - dummy variable created
[2023.03.25-12.20.14:974][  0]LogConfig: CVar [[VersionedIntRValues:r.MobileHDR]] deferred - dummy variable created
[2023.03.25-12.20.14:974][  0]LogConfig: CVar [[VersionedIntRValues:r.UsePreExposure]] deferred - dummy variable created
[2023.03.25-12.20.14:979][  0]LogConfig: Applying CVar settings from Section [ViewDistanceQuality@3] File [Scalability]
[2023.03.25-12.20.14:980][  0]LogConfig: Applying CVar settings from Section [AntiAliasingQuality@3] File [Scalability]
[2023.03.25-12.20.14:980][  0]LogConfig: Applying CVar settings from Section [ShadowQuality@3] File [Scalability]
[2023.03.25-12.20.14:980][  0]LogConfig: Applying CVar settings from Section [GlobalIlluminationQuality@3] File [Scalability]
[2023.03.25-12.20.14:980][  0]LogConfig: Applying CVar settings from Section [ReflectionQuality@3] File [Scalability]
[2023.03.25-12.20.14:980][  0]LogConfig: Applying CVar settings from Section [PostProcessQuality@3] File [Scalability]
[2023.03.25-12.20.14:980][  0]LogConfig: Applying CVar settings from Section [TextureQuality@3] File [Scalability]
[2023.03.25-12.20.14:980][  0]LogConfig: Applying CVar settings from Section [EffectsQuality@3] File [Scalability]
[2023.03.25-12.20.14:980][  0]LogConfig: Applying CVar settings from Section [FoliageQuality@3] File [Scalability]
[2023.03.25-12.20.14:980][  0]LogConfig: Applying CVar settings from Section [ShadingQuality@3] File [Scalability]
[2023.03.25-12.20.14:980][  0]LogConfig: CVar [[r.HairStrands.Interpolation.UseSingleGuide:0]] deferred - dummy variable created
[2023.03.25-12.20.15:369][  0]LogD3D12RHI: Aftermath initialized
[2023.03.25-12.20.15:369][  0]LogD3D12RHI: Loading WinPixEventRuntime.dll for PIX profiling (from ../../../Engine/Binaries/ThirdParty/Windows/WinPixEventRuntime/x64).
[2023.03.25-12.20.16:048][  0]LogD3D12RHI: Found D3D12 adapter 0: NVIDIA GeForce GTX 1060 6GB (Max supported Feature Level 12_1, shader model 6.6)
[2023.03.25-12.20.16:049][  0]LogD3D12RHI: Adapter has 6043MB of dedicated video memory, 0MB of dedicated system memory, and 12255MB of shared system memory, 2 output[s]
[2023.03.25-12.20.16:059][  0]LogD3D12RHI: Found D3D12 adapter 1: Microsoft Basic Render Driver (Max supported Feature Level 12_1, shader model 6.2)
[2023.03.25-12.20.16:059][  0]LogD3D12RHI: Adapter has 0MB of dedicated video memory, 0MB of dedicated system memory, and 12255MB of shared system memory, 0 output[s]
[2023.03.25-12.20.16:060][  0]LogD3D12RHI: Chosen D3D12 Adapter Id = 0
[2023.03.25-12.20.16:060][  0]LogInit: Selected Device Profile: [WindowsEditor]
[2023.03.25-12.20.16:060][  0]LogDeviceProfileManager: Applying CVar settings loaded from the selected device profile: [WindowsEditor]
[2023.03.25-12.20.16:060][  0]LogHAL: Display: Platform has ~ 24 GB [25701695488 / 34359738368 / 24], which maps to Larger [LargestMinGB=32, LargerMinGB=12, DefaultMinGB=8, SmallerMinGB=6, SmallestMinGB=0)
[2023.03.25-12.20.16:060][  0]LogDeviceProfileManager: Going up to parent DeviceProfile [Windows]
[2023.03.25-12.20.16:060][  0]LogDeviceProfileManager: Going up to parent DeviceProfile []
[2023.03.25-12.20.16:060][  0]LogConfig: Applying CVar settings from Section [Startup] File [../../../Engine/Config/ConsoleVariables.ini]
[2023.03.25-12.20.16:060][  0]LogConfig: Applying CVar settings from Section [ConsoleVariables] File [Engine]
[2023.03.25-12.20.16:060][  0]LogConfig: Applying CVar settings from Section [ConsoleVariables] File [C:/Users/admin/Documents/Unreal Projects/MyProject2/Saved/Config/WindowsEditor/Editor.ini]
[2023.03.25-12.20.16:060][  0]LogInit: Computer: DESKTOP-63DL2G7
[2023.03.25-12.20.16:061][  0]LogInit: User: admin
[2023.03.25-12.20.16:061][  0]LogInit: CPU Page size=4096, Cores=6
[2023.03.25-12.20.16:061][  0]LogInit: High frequency timer resolution =10.000000 MHz
[2023.03.25-12.20.16:061][  0]LogMemory: Memory total: Physical=23.9GB (24GB approx)
[2023.03.25-12.20.16:061][  0]LogMemory: Platform Memory Stats for WindowsEditor
[2023.03.25-12.20.16:061][  0]LogMemory: Process Physical Memory: 263.86 MB used, 273.19 MB peak
[2023.03.25-12.20.16:061][  0]LogMemory: Process Virtual Memory: 210.40 MB used, 210.40 MB peak
[2023.03.25-12.20.16:061][  0]LogMemory: Physical Memory: 7207.12 MB used,  17303.92 MB free, 24511.05 MB total
[2023.03.25-12.20.16:061][  0]LogMemory: Virtual Memory: 9705.66 MB used,  18389.39 MB free, 28095.05 MB total
[2023.03.25-12.20.16:061][  0]LogCsvProfiler: Display: Metadata set : extradevelopmentmemorymb="0"
[2023.03.25-12.20.16:069][  0]LogWindows: WindowsPlatformFeatures enabled
[2023.03.25-12.20.16:085][  0]LogInit: Physics initialised using underlying interface: Chaos
[2023.03.25-12.20.16:085][  0]LogInit: Using OS detected language (en-US).
[2023.03.25-12.20.16:085][  0]LogInit: Using OS detected locale (hr-HR).
[2023.03.25-12.20.16:088][  0]LogTextLocalizationManager: No specific localization for 'en-US' exists, so 'en' will be used for the language.
[2023.03.25-12.20.16:244][  0]LogInit: Setting process to per monitor DPI aware
[2023.03.25-12.20.16:265][  0]LogWindowsTextInputMethodSystem: Available input methods:
[2023.03.25-12.20.16:265][  0]LogWindowsTextInputMethodSystem:   - English (United States) - (Keyboard).
[2023.03.25-12.20.16:265][  0]LogWindowsTextInputMethodSystem: Activated input method: English (United States) - (Keyboard).
[2023.03.25-12.20.16:284][  0]LogSlate: New Slate User Created.  User Index 0, Is Virtual User: 0
[2023.03.25-12.20.16:284][  0]LogSlate: Slate User Registered.  User Index 0, Is Virtual User: 0
[2023.03.25-12.20.16:437][  0]LogD3D12RHI: InitD3DDevice: -D3DDebug = off -D3D12GPUValidation = off
[2023.03.25-12.20.16:464][  0]LogD3D12RHI: [Aftermath] Aftermath crash dumping enabled
[2023.03.25-12.20.16:464][  0]LogD3D12RHI: Emitting draw events for PIX profiling.
[2023.03.25-12.20.16:553][  0]LogD3D12RHI: [Aftermath] Aftermath enabled and primed
[2023.03.25-12.20.16:553][  0]LogD3D12RHI: [Aftermath] Aftermath resource tracking enabled
[2023.03.25-12.20.16:553][  0]LogD3D12RHI: ID3D12Device1 is supported.
[2023.03.25-12.20.16:553][  0]LogD3D12RHI: ID3D12Device2 is supported.
[2023.03.25-12.20.16:553][  0]LogD3D12RHI: ID3D12Device3 is supported.
[2023.03.25-12.20.16:553][  0]LogD3D12RHI: ID3D12Device4 is supported.
[2023.03.25-12.20.16:553][  0]LogD3D12RHI: ID3D12Device5 is supported.
[2023.03.25-12.20.16:553][  0]LogD3D12RHI: ID3D12Device6 is supported.
[2023.03.25-12.20.16:553][  0]LogD3D12RHI: ID3D12Device7 is supported.
[2023.03.25-12.20.16:553][  0]LogD3D12RHI: D3D12 ray tracing tier 1.0 is supported.
[2023.03.25-12.20.16:553][  0]LogD3D12RHI: AtomicInt64OnTypedResource is supported
[2023.03.25-12.20.16:553][  0]LogD3D12RHI: AtomicInt64OnGroupShared is supported
[2023.03.25-12.20.16:553][  0]LogD3D12RHI: AtomicInt64OnDescriptorHeapResource is supported
[2023.03.25-12.20.16:553][  0]LogD3D12RHI: Shader Model 6.6 atomic64 is supported
[2023.03.25-12.20.16:627][  0]LogD3D12RHI: [GPUBreadCrumb] Successfully setup breadcrumb resource for 3D Queue 0
[2023.03.25-12.20.16:634][  0]LogD3D12RHI: [GPUBreadCrumb] Successfully setup breadcrumb resource for Copy Queue 0
[2023.03.25-12.20.16:645][  0]LogD3D12RHI: [GPUBreadCrumb] Successfully setup breadcrumb resource for Compute Queue 0
[2023.03.25-12.20.16:776][  0]LogD3D12RHI: Display: Not using pipeline state disk cache per r.D3D12.PSO.DiskCache=0
[2023.03.25-12.20.16:776][  0]LogD3D12RHI: Display: Not using driver-optimized pipeline state disk cache per r.D3D12.PSO.DriverOptimizedDiskCache=0
[2023.03.25-12.20.16:878][  0]LogD3D12RHI: Warning: Ray tracing is disabled for NVIDIA cards with the Pascal architecture.
[2023.03.25-12.20.16:878][  0]LogD3D12RHI:     GPU DeviceId: 0x1c03 (for the marketing name, search the web for "GPU Device Id")
[2023.03.25-12.20.16:878][  0]LogWindows: EnumDisplayDevices:
[2023.03.25-12.20.16:878][  0]LogWindows:    0. 'NVIDIA GeForce GTX 1060 6GB' (P:0 D:1)
[2023.03.25-12.20.16:879][  0]LogWindows:    1. 'NVIDIA GeForce GTX 1060 6GB' (P:1 D:1)
[2023.03.25-12.20.16:879][  0]LogWindows:    2. 'NVIDIA GeForce GTX 1060 6GB' (P:0 D:0)
[2023.03.25-12.20.16:880][  0]LogWindows:    3. 'NVIDIA GeForce GTX 1060 6GB' (P:0 D:0)
[2023.03.25-12.20.16:881][  0]LogWindows: DebugString: FoundDriverCount:4 
[2023.03.25-12.20.16:881][  0]LogD3D12RHI:     Adapter Name: NVIDIA GeForce GTX 1060 6GB
[2023.03.25-12.20.16:881][  0]LogD3D12RHI:   Driver Version: 526.47 (internal:31.0.15.2647, unified:526.47)
[2023.03.25-12.20.16:881][  0]LogD3D12RHI:      Driver Date: 10-25-2022
[2023.03.25-12.20.16:881][  0]LogRHI: Texture pool is 3323 MB (70% of 4747 MB)
[2023.03.25-12.20.16:881][  0]LogD3D12RHI: Async texture creation enabled
[2023.03.25-12.20.16:881][  0]LogD3D12RHI: RHI has support for 64 bit atomics
[2023.03.25-12.20.16:895][  0]LogRHI: GeForceNow SDK initialized: 0
[2023.03.25-12.20.16:902][  0]LogTurnkeySupport: Running Turnkey SDK detection: ' -ScriptsForProject="C:/Users/admin/Documents/Unreal Projects/MyProject2/MyProject2.uproject" Turnkey -utf8output -WaitForUATMutex -command=VerifySdk -ReportFilename="C:/Users/admin/Documents/Unreal Projects/MyProject2/Intermediate/TurnkeyReport_0.log" -log="C:/Users/admin/Documents/Unreal Projects/MyProject2/Intermediate/TurnkeyLog_0.log" -project="C:/Users/admin/Documents/Unreal Projects/MyProject2/MyProject2.uproject"  -platform=all'
[2023.03.25-12.20.16:902][  0]LogMonitoredProcess: Running Serialized UAT: [ cmd.exe /c ""D:/Games/Dauntless/Spellbreak/UE_5.0/Engine/Build/BatchFiles/RunUAT.bat"  -ScriptsForProject="C:/Users/admin/Documents/Unreal Projects/MyProject2/MyProject2.uproject" Turnkey -utf8output -WaitForUATMutex -command=VerifySdk -ReportFilename="C:/Users/admin/Documents/Unreal Projects/MyProject2/Intermediate/TurnkeyReport_0.log" -log="C:/Users/admin/Documents/Unreal Projects/MyProject2/Intermediate/TurnkeyLog_0.log" -project="C:/Users/admin/Documents/Unreal Projects/MyProject2/MyProject2.uproject"  -platform=all" ]
[2023.03.25-12.20.16:926][  0]LogTextureFormatETC2: Display: ETC2 Texture loading DLL: TextureConverter.dll
[2023.03.25-12.20.16:933][  0]LogTextureFormatOodle: Display: Oodle Texture TFO init; latest sdk version = 2.9.5
[2023.03.25-12.20.16:934][  0]LogTextureFormatOodle: Display: Oodle Texture loading DLL: oo2tex_win64_2.9.5.dll
[2023.03.25-12.20.16:940][  0]LogTargetPlatformManager: Display: Loaded TargetPlatform 'Android'
[2023.03.25-12.20.16:940][  0]LogTargetPlatformManager: Display: Loaded TargetPlatform 'Android_ASTC'
[2023.03.25-12.20.16:940][  0]LogTargetPlatformManager: Display: Loaded TargetPlatform 'Android_DXT'
[2023.03.25-12.20.16:940][  0]LogTargetPlatformManager: Display: Loaded TargetPlatform 'Android_ETC2'
[2023.03.25-12.20.16:940][  0]LogTargetPlatformManager: Display: Loaded TargetPlatform 'AndroidClient'
[2023.03.25-12.20.16:940][  0]LogTargetPlatformManager: Display: Loaded TargetPlatform 'Android_ASTCClient'
[2023.03.25-12.20.16:940][  0]LogTargetPlatformManager: Display: Loaded TargetPlatform 'Android_DXTClient'
[2023.03.25-12.20.16:940][  0]LogTargetPlatformManager: Display: Loaded TargetPlatform 'Android_ETC2Client'
[2023.03.25-12.20.16:940][  0]LogTargetPlatformManager: Display: Loaded TargetPlatform 'Android_Multi'
[2023.03.25-12.20.16:940][  0]LogTargetPlatformManager: Display: Loaded TargetPlatform 'Android_MultiClient'
[2023.03.25-12.20.16:978][  0]LogTargetPlatformManager: Display: Loaded TargetPlatform 'HoloLens'
[2023.03.25-12.20.16:978][  0]LogTargetPlatformManager: Display: Loaded TargetPlatform 'HoloLensClient'
[2023.03.25-12.20.16:982][  0]LogTargetPlatformManager: Display: Loaded TargetPlatform 'IOS'
[2023.03.25-12.20.16:982][  0]LogTargetPlatformManager: Display: Loaded TargetPlatform 'IOSClient'
[2023.03.25-12.20.16:986][  0]LogTargetPlatformManager: Display: Loaded TargetPlatform 'Linux'
[2023.03.25-12.20.16:986][  0]LogTargetPlatformManager: Display: Loaded TargetPlatform 'LinuxEditor'
[2023.03.25-12.20.16:986][  0]LogTargetPlatformManager: Display: Loaded TargetPlatform 'LinuxServer'
[2023.03.25-12.20.16:986][  0]LogTargetPlatformManager: Display: Loaded TargetPlatform 'LinuxClient'
[2023.03.25-12.20.16:989][  0]LogTargetPlatformManager: Display: Loaded TargetPlatform 'LinuxArm64'
[2023.03.25-12.20.16:989][  0]LogTargetPlatformManager: Display: Loaded TargetPlatform 'LinuxArm64Server'
[2023.03.25-12.20.16:989][  0]LogTargetPlatformManager: Display: Loaded TargetPlatform 'LinuxArm64Client'
[2023.03.25-12.20.16:992][  0]LogTargetPlatformManager: Display: Loaded TargetPlatform 'TVOS'
[2023.03.25-12.20.16:992][  0]LogTargetPlatformManager: Display: Loaded TargetPlatform 'TVOSClient'
[2023.03.25-12.20.16:998][  0]LogTargetPlatformManager: Display: Loaded TargetPlatform 'Windows'
[2023.03.25-12.20.16:998][  0]LogTargetPlatformManager: Display: Loaded TargetPlatform 'WindowsEditor'
[2023.03.25-12.20.16:998][  0]LogTargetPlatformManager: Display: Loaded TargetPlatform 'WindowsServer'
[2023.03.25-12.20.16:998][  0]LogTargetPlatformManager: Display: Loaded TargetPlatform 'WindowsClient'
[2023.03.25-12.20.16:998][  0]LogTargetPlatformManager: Display: Building Assets For WindowsEditor
[2023.03.25-12.20.17:005][  0]LogAudioDebug: Display: Lib vorbis DLL was dynamically loaded.
[2023.03.25-12.20.17:008][  0]LogTargetPlatformManager: Unable to find audio format BINKA from hinted modules, loading all potential format modules to find it
[2023.03.25-12.20.17:008][  0]LogTargetPlatformManager: Loaded format module AudioFormatADPCM
[2023.03.25-12.20.17:008][  0]LogTargetPlatformManager:   ADPCM
[2023.03.25-12.20.17:009][  0]LogTargetPlatformManager:   PCM
[2023.03.25-12.20.17:011][  0]LogTargetPlatformManager: Loaded format module AudioFormatBink
[2023.03.25-12.20.17:011][  0]LogTargetPlatformManager:   BINKA
[2023.03.25-12.20.17:011][  0]LogTargetPlatformManager: Loaded format module AudioFormatOgg
[2023.03.25-12.20.17:011][  0]LogTargetPlatformManager:   OGG
[2023.03.25-12.20.17:011][  0]LogTargetPlatformManager: Loaded format module AudioFormatOpus
[2023.03.25-12.20.17:011][  0]LogTargetPlatformManager:   OPUS
[2023.03.25-12.20.17:053][  0]LogTurnkeySupport: Completed SDK detection: ExitCode = 9009
[2023.03.25-12.20.17:053][  0]LogTargetPlatformManager: Unable to find shader format SF_METAL from hinted modules, loading all potential format modules to find it
[2023.03.25-12.20.17:059][  0]LogTargetPlatformManager: Loaded format module MetalShaderFormat
[2023.03.25-12.20.17:059][  0]LogTargetPlatformManager:   SF_METAL
[2023.03.25-12.20.17:059][  0]LogTargetPlatformManager:   SF_METAL_MRT
[2023.03.25-12.20.17:059][  0]LogTargetPlatformManager:   SF_METAL_TVOS
[2023.03.25-12.20.17:059][  0]LogTargetPlatformManager:   SF_METAL_MRT_TVOS
[2023.03.25-12.20.17:059][  0]LogTargetPlatformManager:   SF_METAL_SM5
[2023.03.25-12.20.17:059][  0]LogTargetPlatformManager:   SF_METAL_MACES3_1
[2023.03.25-12.20.17:059][  0]LogTargetPlatformManager:   SF_METAL_MRT_MAC
[2023.03.25-12.20.17:059][  0]LogTargetPlatformManager: Loaded format module ShaderFormatD3D
[2023.03.25-12.20.17:059][  0]LogTargetPlatformManager:   PCD3D_SM6
[2023.03.25-12.20.17:060][  0]LogTargetPlatformManager:   PCD3D_SM5
[2023.03.25-12.20.17:060][  0]LogTargetPlatformManager:   PCD3D_ES31
[2023.03.25-12.20.17:060][  0]LogTargetPlatformManager:   D3D_ES3_1_HOLOLENS
[2023.03.25-12.20.17:060][  0]LogTargetPlatformManager: Loaded format module ShaderFormatOpenGL
[2023.03.25-12.20.17:060][  0]LogTargetPlatformManager:   GLSL_150_ES31
[2023.03.25-12.20.17:060][  0]LogTargetPlatformManager:   GLSL_ES3_1_ANDROID
[2023.03.25-12.20.17:063][  0]LogTargetPlatformManager: Loaded format module ShaderFormatVectorVM
[2023.03.25-12.20.17:063][  0]LogTargetPlatformManager:   VVM_1_0
[2023.03.25-12.20.17:063][  0]LogTargetPlatformManager: Loaded format module VulkanShaderFormat
[2023.03.25-12.20.17:063][  0]LogTargetPlatformManager:   SF_VULKAN_SM5
[2023.03.25-12.20.17:063][  0]LogTargetPlatformManager:   SF_VULKAN_ES31_ANDROID
[2023.03.25-12.20.17:063][  0]LogTargetPlatformManager:   SF_VULKAN_ES31
[2023.03.25-12.20.17:063][  0]LogTargetPlatformManager:   SF_VULKAN_SM5_ANDROID
[2023.03.25-12.20.17:063][  0]LogRendererCore: Ray tracing is disabled. Reason: r.RayTracing=0.
[2023.03.25-12.20.17:063][  0]LogShaderCompilers: Display: Compiling shader autogen file: C:/Users/admin/Documents/Unreal Projects/MyProject2/Intermediate/ShaderAutogen/PCD3D_SM5/AutogenShaderHeaders.ush
[2023.03.25-12.20.17:064][  0]LogShaderCompilers: Display: Autogen file is unchanged, skipping write.
[2023.03.25-12.20.17:064][  0]LogShaderCompilers: Display: Compiling shader autogen file: C:/Users/admin/Documents/Unreal Projects/MyProject2/Intermediate/ShaderAutogen/PCD3D_ES31/AutogenShaderHeaders.ush
[2023.03.25-12.20.17:064][  0]LogShaderCompilers: Display: Autogen file is unchanged, skipping write.
[2023.03.25-12.20.17:067][  0]LogDerivedDataCache: FDerivedDataBackendGraph:  Pak pak cache file C:/Users/admin/Documents/Unreal Projects/MyProject2/DerivedDataCache/DDC.ddp not found, will not use a pak cache.
[2023.03.25-12.20.17:067][  0]LogDerivedDataCache: Unable to find inner node Pak for hierarchy Hierarchy.
[2023.03.25-12.20.17:067][  0]LogDerivedDataCache: FDerivedDataBackendGraph:  CompressedPak pak cache file C:/Users/admin/Documents/Unreal Projects/MyProject2/DerivedDataCache/Compressed.ddp not found, will not use a pak cache.
[2023.03.25-12.20.17:067][  0]LogDerivedDataCache: Unable to find inner node CompressedPak for hierarchy Hierarchy.
[2023.03.25-12.20.17:085][  0]LogDerivedDataCache: Display: ../../../Engine/DerivedDataCache/Compressed.ddp: Opened pak cache for reading. (1092 MiB)
[2023.03.25-12.20.17:085][  0]LogDerivedDataCache: FDerivedDataBackendGraph:  EnterprisePak pak cache file ../../../Enterprise/DerivedDataCache/Compressed.ddp not found, will not use a pak cache.
[2023.03.25-12.20.17:085][  0]LogDerivedDataCache: Unable to find inner node EnterprisePak for hierarchy Hierarchy.
[2023.03.25-12.20.17:094][  0]LogDerivedDataCache: Speed tests for C:/Users/admin/AppData/Local/UnrealEngine/Common/DerivedDataCache took 0.01 seconds
[2023.03.25-12.20.17:094][  0]LogDerivedDataCache: Display: Performance to C:/Users/admin/AppData/Local/UnrealEngine/Common/DerivedDataCache: Latency=0.05ms. RandomReadSpeed=816.73MBs, RandomWriteSpeed=145.48MBs. Assigned SpeedClass 'Local'
[2023.03.25-12.20.17:095][  0]LogDerivedDataCache: Using Local data cache path C:/Users/admin/AppData/Local/UnrealEngine/Common/DerivedDataCache: Writable
[2023.03.25-12.20.17:095][  0]LogDerivedDataCache: Shared data cache path not found in *engine.ini, will not use an Shared cache.
[2023.03.25-12.20.17:095][  0]LogDerivedDataCache: Unable to find inner node Shared for hierarchy Hierarchy.
[2023.03.25-12.20.17:101][  0]LogVirtualization: VirtualizationSystem name found in ini file: None
[2023.03.25-12.20.17:101][  0]LogVirtualization: FNullVirtualizationSystem mounted, virtualization will be disabled
[2023.03.25-12.20.17:101][  0]LogShaderCompilers: Guid format shader working directory is -5 characters bigger than the processId version (C:/Users/admin/Documents/Unreal Projects/MyProject2/Intermediate/Shaders/WorkingDirectory/3300/).
[2023.03.25-12.20.17:101][  0]LogShaderCompilers: Cleaned the shader compiler working directory 'C:/Users/admin/AppData/Local/Temp/UnrealShaderWorkingDir/AC0181C74121321ED7B817A04F223CEC/'.
[2023.03.25-12.20.17:102][  0]LogXGEController: Cannot use XGE Controller as Incredibuild is not installed on this machine.
[2023.03.25-12.20.17:102][  0]LogShaderCompilers: Display: Using Local Shader Compiler with 3 workers.
[2023.03.25-12.20.18:550][  0]LogSlate: Using FreeType 2.10.0
[2023.03.25-12.20.18:551][  0]LogSlate: SlateFontServices - WITH_FREETYPE: 1, WITH_HARFBUZZ: 1
[2023.03.25-12.20.18:585][  0]LogAssetRegistry: FAssetRegistry took 0.0124 seconds to start up
[2023.03.25-12.20.18:591][  0]LogEditorDomain: Display: EditorDomain is Disabled
[2023.03.25-12.20.18:770][  0]LogSerialization: UsePackageTrailer: 'false'
[2023.03.25-12.20.18:771][  0]LogTexture: Display: Texture Encode Speed: FinalIfAvailable (editor).
[2023.03.25-12.20.19:085][  0]LogInit: Selected Device Profile: [WindowsEditor]
[2023.03.25-12.20.19:085][  0]LogDeviceProfileManager: Active device profile: [000007E18FBE39C0][000007E1855F0000 50] WindowsEditor
[2023.03.25-12.20.19:085][  0]LogDeviceProfileManager: Profiles: [000007E18FBE3480][000007E1855F2800 50] Windows, [000007E18FBE39C0][000007E1855F0000 50] WindowsEditor, [000007E18FBE1880][000007E1855FA000 50] WindowsServer, [000007E18FBE3100][000007E177D37800 50] WindowsClient, [000007E18FBE1340][000007E1855B5000 50] IOS, [000007E18FBE08C0][000007E1855F5000 50] iPadAir2, [000007E18FBE4EC0][000007E18FC20000 50] IPadPro, [000007E18FBE5240][000007E18FC22800 50] iPadAir3, [000007E18FBE0E00][000007E18FC27800 50] iPadAir4, [000007E18FBE4D00][000007E18FC2A000 50] iPadMini4, [000007E18FBE1A40][000007E18FC2C800 50] iPadMini5, [000007E18FBE4B40][000007E1855B7800 50] iPadMini6, [000007E18FBE8500][000007E18FC52800 50] iPhone6S, [000007E18FBE8880][000007E18FC50000 50] iPhone7, [000007E18FBE8C00][000007E18FC55000 50] iPodTouch7, [000007E18FBE7540][000007E18FC5A000 50] iPhone6SPlus, [000007E18FBE7C40][000007E18FC5C800 50] iPhone7Plus, [000007E18FBE5B00][000007E18FC25000 50] iPhoneSE, [000007E18FBE0C40][000007E18FC57800 50] iPhone8, [000007E18FBE2F40][000007E18FBF0000 50] iPhone8Plus, [000007E18FBE0700][000007E18FBF5000 50] iPhoneX, [000007E18FBE2BC0][000007E18FBF7800 50] iPhoneXS, [000007E18FBE3F00][000007E18FBFA000 50] iPhoneXSMax, [000007E18FBE86C0][000007E18FBFC800 50] iPhoneXR, [000007E18FBE2300][000007E1886BC800 50] iPhone11, [000007E18FBE2A00][000007E18FC10000 50] iPhone11Pro, [000007E18FBE71C0][000007E18FC15000 50] iPhone11ProMax, [000007E18FBE5E80][000007E18FC17800 50] iPhoneSE2, [000007E18FBE5780][000007E18FC1A000 50] iPhone12Mini, [000007E18FBE6E40][000007E18FC1C800 50] iPhone12, [000007E18FBE5400][000007E18FBF2800 50] iPhone12Pro, [000007E18FBE0A80][000007E18FC60000 50] iPhone12ProMax, [000007E18FBE0540][000007E18FC65000 50] iPhone13Mini, [000007E18FBE6C80][000007E18FC67800 50] iPhone13, [000007E18FBE4980][000007E18FC6A000 50] iPhone13Pro, [000007E18FBE4440][000007E18FC6C800 50] iPhone13ProMax, [000007E18FBE16C0][000007E18FC12800 50] iPadPro105, [000007E18FBE32C0][000007E18FC80000 50] iPadPro129, [000007E18FBE2680][000007E18FC85000 50] iPadPro97, [000007E18FBE2D80][000007E18FC87800 50] iPadPro2_129, [000007E18FBE8340][000007E18FC8A000 50] iPad5, [000007E18FBE8A40][000007E18FC8C800 50] iPad6, [000007E18FBE24C0][000007E18FC62800 50] iPad7, [000007E18FBE3800][000007E18FC90000 50] iPad8, [000007E18FBE0FC0][000007E18FC95000 50] iPad9, [000007E18FBE5940][000007E18FC97800 50] iPadPro11, [000007E18FBE1C00][000007E18FC9A000 50] iPadPro2_11, [000007E18FBE1F80][000007E18FC9C800 50] iPadPro3_11, [000007E18FBE3B80][000007E18FC82800 50] iPadPro3_129, [000007E18FBE6900][000007E18FCA0000 50] iPadPro4_129, [000007E18FBE3D40][000007E18FCA5000 50] iPadPro5_129, [000007E18FBE7700][000007E18FCA7800 50] AppleTV, [000007E18FBE2840][000007E18FCAA000 50] AppleTV4K, [000007E18FBE4280][000007E18FCAC800 50] TVOS, [000007E18FBEA640][000007E18FCD0000 50] Mac, [000007E18FBEA9C0][000007E18FCD2800 50] MacEditor, [000007E18FBE9BC0][000007E18FCD7800 50] MacClient, [000007E18FBE5CC0][000007E18FCDA000 50] MacServer, [000007E18FBEAB80][000007E18FC92800 50] Linux, [000007E18FBEA480][000007E18FCA2800 50] LinuxEditor, [000007E18FBE6200][000007E18FCDC800 50] LinuxArm64Editor, [000007E18FBE8180][000007E18FCB0000 50] LinuxArm64, [000007E18FBE7E00][000007E18FCB5000 50] LinuxClient, [000007E18FBE9D80][000007E18FCB7800 50] LinuxArm64Client, [000007E18FBEA2C0][000007E18FCBA000 50] LinuxServer, [000007E18FBE9140][000007E18FCBC800 50] LinuxArm64Server, [000007E18FBE7380][000007E18FCD5000 50] Android, [000007E18FBE6740][000007E18FCC0000 50] Android_Preview_OpenGL, [000007E18FBE9A00][000007E18FCC5000 50] Android_Preview_Vulkan, [000007E18FBE6AC0][000007E18FCC7800 50] Android_Low, [000007E18FBE1500][000007E18FCCA000 50] Android_Mid, [000007E18FBE1DC0][000007E18FCCC800 50] Android_High, [000007E18FBE8DC0][000007E18FCB2800 50] Android_Default, [000007E18FBE7A80][000007E18FCE0000 50] Android_Adreno4xx, [000007E18FBE9840][000007E18FCE5000 50] Android_Adreno5xx_Low, [000007E18FBE78C0][000007E18FCE7800 50] Android_Adreno5xx, [000007E18FBE5080][000007E18FCEA000 50] Android_Adreno6xx, [000007E18FBE47C0][000007E18FCEC800 50] Android_Adreno6xx_Vulkan, [000007E18FBE7000][000007E18FCC2800 50] Android_Adreno7xx, [000007E18FBE8F80][000007E18FCF0000 50] Android_Adreno7xx_Vulkan, [000007E18FBE6580][000007E18FCF5000 50] Android_Mali_T6xx, [000007E18FBEAD40][000007E18FCF7800 50] Android_Mali_T7xx, [000007E18FBEB440][000007E18FCFA000 50] Android_Mali_T8xx, [000007E18FBEB0C0][000007E18FCFC800 50] Android_Mali_G71, [000007E18FBEAF00][000007E18FCE2800 50] Android_Mali_G72, [000007E18FBEBD00][000007E18FD00000 50] Android_Mali_G72_Vulkan, [000007E18FBE4600][000007E18FD05000 50] Android_Mali_G76, [000007E18FBEC240][000007E18FD07800 50] Android_Mali_G76_Vulkan, [000007E18FBE01C0][000007E18FD0A000 50] Android_Mali_G77, [000007E18FBE0000][000007E18FD0C800 50] Android_Mali_G77_Vulkan, [000007E18FBE63C0][000007E18FCF2800 50] Android_Mali_G78, [000007E18FBE9300][000007E18FD10000 50] Android_Mali_G78_Vulkan, [000007E18FBEB600][000007E18FD15000 50] Android_Mali_G710, [000007E18FBE9F40][000007E18FD17800 50] Android_Mali_G710_Vulkan, [000007E18FBEBB40][000007E18FD1A000 50] Android_Xclipse_920, [000007E18FBEB980][000007E18FD1C800 50] Android_Xclipse_920_Vulkan, [000007E18FBEC080][000007E18FD02800 50] Android_Vulkan_SM5, [000007E18FBE9680][000007E18FD20000 50] Android_PowerVR_G6xxx, [000007E18FBEDAC0][000007E18FD25000 50] Android_PowerVR_GT7xxx, [000007E18FBEA100][000007E18FD27800 50] Android_PowerVR_GE8xxx, [000007E18FBE40C0][000007E18FD2A000 50] Android_PowerVR_GM9xxx, [000007E18FBE2140][000007E18FD2C800 50] Android_PowerVR_GM9xxx_Vulkan, [000007E18FBECB00][000007E18FD12800 50] Android_TegraK1, [000007E18FBEDE40][000007E18FD30000 50] Android_Unknown_Vulkan, [000007E18FBE94C0][000007E18FD35000 50] Oculus_Quest, [000007E18FBEC940][000007E18FD37800 50] Oculus_Quest2, [000007E18FBEA800][000007E18FD3A000 50] HoloLens, 
[2023.03.25-12.20.19:085][  0]LogCsvProfiler: Display: Metadata set : deviceprofile="WindowsEditor"
[2023.03.25-12.20.19:111][  0]LogTexture: Display: Oodle Texture Encode Speed settings: Fast: RDO Off Lambda=0, Effort=Normal Final: RDO Off Lambda=0, Effort=Normal
[2023.03.25-12.20.19:299][  0]LogMeshReduction: Using QuadricMeshReduction for automatic static mesh reduction
[2023.03.25-12.20.19:299][  0]LogMeshReduction: Using SimplygonMeshReduction for automatic skeletal mesh reduction
[2023.03.25-12.20.19:299][  0]LogMeshReduction: Using ProxyLODMeshReduction for automatic mesh merging
[2023.03.25-12.20.19:299][  0]LogMeshReduction: No distributed automatic mesh merging module available
[2023.03.25-12.20.19:299][  0]LogMeshMerging: No distributed automatic mesh merging module available
[2023.03.25-12.20.19:318][  0]LogNetVersion: MyProject2 1.0.0, NetCL: 19505902, EngineNetVer: 23, GameNetVer: 0 (Checksum: 2744017083)
[2023.03.25-12.20.20:257][  0]LogSlate: Border
[2023.03.25-12.20.20:257][  0]LogSlate: BreadcrumbButton
[2023.03.25-12.20.20:257][  0]LogSlate: Default
[2023.03.25-12.20.20:257][  0]LogSlate: Icons.Save
[2023.03.25-12.20.20:257][  0]LogSlate: Icons.Toolbar.Settings
[2023.03.25-12.20.20:257][  0]LogSlate: ListView
[2023.03.25-12.20.20:257][  0]LogSlate: SoftwareCursor_CardinalCross
[2023.03.25-12.20.20:257][  0]LogSlate: SoftwareCursor_Grab
[2023.03.25-12.20.20:257][  0]LogSlate: TableView.DarkRow
[2023.03.25-12.20.20:257][  0]LogSlate: TableView.Row
[2023.03.25-12.20.20:257][  0]LogSlate: TreeView
[2023.03.25-12.20.21:990][  0]SourceControl: Source control is disabled
[2023.03.25-12.20.22:052][  0]SourceControl: Source control is disabled
[2023.03.25-12.20.22:052][  0]SourceControl: Source control is disabled
[2023.03.25-12.20.22:170][  0]LogUObjectArray: 20557 objects as part of root set at end of initial load.
[2023.03.25-12.20.22:170][  0]LogUObjectAllocator: 5584248 out of 0 bytes used by permanent object pool.
[2023.03.25-12.20.22:170][  0]LogUObjectArray: CloseDisregardForGC: 0/0 objects in disregard for GC pool
[2023.03.25-12.20.22:549][  0]LogPython: Using Python 3.9.7
[2023.03.25-12.20.23:369][  0]LogNiagaraDebuggerClient: Niagara Debugger Client Initialized | Session: 3F5868F947269849C71BE98C05A6D9B6 | Instance: 1F7BE62141F8435DA632709870BD4302 (DESKTOP-63DL2G7-3300).
[2023.03.25-12.20.23:408][  0]LogTcpMessaging: Initializing TcpMessaging bridge
[2023.03.25-12.20.23:413][  0]LogUdpMessaging: Initializing bridge on interface 0.0.0.0:0 to multicast group 230.0.0.1:6666.
[2023.03.25-12.20.23:505][  0]SourceControl: Source control is disabled
[2023.03.25-12.20.23:508][  0]SourceControl: Source control is disabled
[2023.03.25-12.20.23:520][  0]SourceControl: Source control is disabled
[2023.03.25-12.20.23:529][  0]LogUProjectInfo: Found projects:
[2023.03.25-12.20.24:097][  0]LogOpenImageDenoise: OIDN starting up
[2023.03.25-12.20.24:168][  0]LogAndroidPermission: UAndroidPermissionCallbackProxy::GetInstance
[2023.03.25-12.20.24:193][  0]LogAudioCaptureCore: Display: No Audio Capture implementations found. Audio input will be silent.
[2023.03.25-12.20.24:193][  0]LogAudioCaptureCore: Display: No Audio Capture implementations found. Audio input will be silent.
[2023.03.25-12.20.24:291][  0]LogCollectionManager: Loaded 0 collections in 0.000820 seconds
[2023.03.25-12.20.24:376][  0]LogFileCache: Scanning file cache for directory 'C:/Users/admin/Documents/Unreal Projects/MyProject2/Saved/Collections/' took 0.00s
[2023.03.25-12.20.24:376][  0]LogFileCache: Scanning file cache for directory 'C:/Users/admin/Documents/Unreal Projects/MyProject2/Content/Developers/admin/Collections/' took 0.00s
[2023.03.25-12.20.24:376][  0]LogFileCache: Scanning file cache for directory 'C:/Users/admin/Documents/Unreal Projects/MyProject2/Content/Collections/' took 0.00s
[2023.03.25-12.20.24:741][  0]LogEngine: Initializing Engine...
[2023.03.25-12.20.24:756][  0]LogStylusInput: Initializing StylusInput subsystem.
[2023.03.25-12.20.24:759][  0]LogStats: UGameplayTagsManager::InitializeManager -  0.000 s
[2023.03.25-12.20.25:020][  0]LogInit: Initializing FReadOnlyCVARCache
[2023.03.25-12.20.25:020][  0]LogSubsystemCollection: Failed to initialize subsystem dependency (WorldPartitionSubsystem)
[2023.03.25-12.20.25:032][  0]LogChaos: FPhysicsSolverBase::AsyncDt:-1.000000
[2023.03.25-12.20.25:063][  0]LogAIModule: Creating AISystem for world Untitled
[2023.03.25-12.20.25:064][  0]LogAudio: Display: Initializing Audio Device Manager...
[2023.03.25-12.20.25:088][  0]LogAudio: Display: Loading Default Audio Settings Objects...
[2023.03.25-12.20.25:088][  0]LogAudio: Display: No default SoundConcurrencyObject specified (or failed to load).
[2023.03.25-12.20.25:088][  0]LogAudio: Display: Registering Engine Module Parameter Interfaces...
[2023.03.25-12.20.25:089][  0]LogAudio: Display: Audio Device Manager Initialized
[2023.03.25-12.20.25:089][  0]LogAudio: Display: Creating Audio Device:                 Id: 1, Scope: Shared, Realtime: True
[2023.03.25-12.20.25:089][  0]LogAudioMixer: Display: Audio Mixer Platform Settings:
[2023.03.25-12.20.25:089][  0]LogAudioMixer: Display: 	Sample Rate:						  48000
[2023.03.25-12.20.25:089][  0]LogAudioMixer: Display: 	Callback Buffer Frame Size Requested: 1024
[2023.03.25-12.20.25:089][  0]LogAudioMixer: Display: 	Callback Buffer Frame Size To Use:	  1024
[2023.03.25-12.20.25:089][  0]LogAudioMixer: Display: 	Number of buffers to queue:			  2
[2023.03.25-12.20.25:089][  0]LogAudioMixer: Display: 	Max Channels (voices):				  0
[2023.03.25-12.20.25:089][  0]LogAudioMixer: Display: 	Number of Async Source Workers:		  0
[2023.03.25-12.20.25:089][  0]LogAudio: Display: AudioDevice MaxSources: 32
[2023.03.25-12.20.25:089][  0]LogAudio: Display: Audio Spatialization Plugin: None (built-in).
[2023.03.25-12.20.25:089][  0]LogAudio: Display: Audio Reverb Plugin: None (built-in).
[2023.03.25-12.20.25:089][  0]LogAudio: Display: Audio Occlusion Plugin: None (built-in).
[2023.03.25-12.20.25:095][  0]LogAudioMixer: Display: Initializing audio mixer using platform API: 'XAudio2'
[2023.03.25-12.20.25:282][  0]LogAudioMixer: Display: Using Audio Hardware Device Speakers (Realtek High Definition Audio)
[2023.03.25-12.20.25:282][  0]LogAudioMixer: Display: Initializing Sound Submixes...
[2023.03.25-12.20.25:284][  0]LogAudioMixer: Display: Creating Master Submix 'MasterSubmixDefault'
[2023.03.25-12.20.25:284][  0]LogAudioMixer: Display: Creating Master Submix 'MasterReverbSubmixDefault'
[2023.03.25-12.20.25:285][  0]LogAudioMixer: FMixerPlatformXAudio2::StartAudioStream() called. InstanceID=1
[2023.03.25-12.20.25:286][  0]LogAudioMixer: Display: Output buffers initialized: Frames=1024, Channels=2, Samples=2048, InstanceID=1
[2023.03.25-12.20.25:287][  0]LogAudioMixer: Display: Starting AudioMixerPlatformInterface::RunInternal(), InstanceID=1
[2023.03.25-12.20.25:287][  0]LogAudioMixer: Display: FMixerPlatformXAudio2::SubmitBuffer() called for the first time. InstanceID=1
[2023.03.25-12.20.25:287][  0]LogInit: FAudioDevice initialized.
[2023.03.25-12.20.25:287][  0]LogAudio: Display: Audio Device (ID: 1) registered with world 'Untitled'.
[2023.03.25-12.20.25:287][  0]LogNetVersion: Set ProjectVersion to 1.0.0.0. Version Checksum will be recalculated on next use.
[2023.03.25-12.20.25:287][  0]LogInit: Texture streaming: Enabled
[2023.03.25-12.20.25:324][  0]LogAnalytics: Display: [UEEditor.Rocket.Release] APIServer = https://datarouter.ol.epicgames.com/. AppVersion = 5.0.1-19764885+++UE5+Release-5.0
[2023.03.25-12.20.25:338][  0]LogEngineSessionManager: EngineSessionManager initialized
[2023.03.25-12.20.25:365][  0]LogCsvProfiler: Display: Metadata set : largeworldcoordinates="1"
[2023.03.25-12.20.25:373][  0]LogLiveCoding: Display: Starting LiveCoding
[2023.03.25-12.20.25:373][  0]LogLiveCoding: Display: LiveCodingConsole Arguments: UnrealEditor Win64 Development
[2023.03.25-12.20.37:760][  0]LogLiveCoding: Display: First instance in process group "UE_MyProject2_0x3c6d4d0b", spawning console
[2023.03.25-12.20.37:760][  0]LogLiveCoding: Display: Waiting for server
[2023.03.25-12.20.37:760][  0]LogLiveCoding: Display: Successfully initialized, removing startup thread
[2023.03.25-12.20.37:816][  0]LogInit: Transaction tracking system initialized
[2023.03.25-12.20.37:898][  0]BlueprintLog: New page: Editor Load
[2023.03.25-12.20.38:124][  0]LocalizationService: Localization service is disabled
[2023.03.25-12.20.38:190][  0]TimingProfiler: Initialize
[2023.03.25-12.20.38:190][  0]TimingProfiler: OnSessionChanged
[2023.03.25-12.20.38:190][  0]LoadingProfiler: Initialize
[2023.03.25-12.20.38:190][  0]LoadingProfiler: OnSessionChanged
[2023.03.25-12.20.38:190][  0]NetworkingProfiler: Initialize
[2023.03.25-12.20.38:190][  0]NetworkingProfiler: OnSessionChanged
[2023.03.25-12.20.38:190][  0]MemoryProfiler: Initialize
[2023.03.25-12.20.38:190][  0]MemoryProfiler: OnSessionChanged
[2023.03.25-12.20.39:340][  0]LogFileCache: Scanning file cache for directory 'C:/Users/admin/Documents/Unreal Projects/MyProject2/Content/' took 0.00s
[2023.03.25-12.20.39:340][  0]LogLevelSequenceEditor: LevelSequenceEditor subsystem initialized.
[2023.03.25-12.20.39:425][  0]LogInit: Display: Engine is initialized. Leaving FEngineLoop::Init()
[2023.03.25-12.20.39:426][  0]SourceControl: Source control is disabled
[2023.03.25-12.20.39:426][  0]LogUnrealEdMisc: Loading editor; pre map load, took 26.265
[2023.03.25-12.20.39:426][  0]Cmd: MAP LOAD FILE="C:/Users/admin/Documents/Unreal Projects/MyProject2/Content/StarterContent/Maps/Minimal_Default.umap" TEMPLATE=0 SHOWPROGRESS=1 FEATURELEVEL=3
[2023.03.25-12.20.39:427][  0]LightingResults: New page: Lighting Build
[2023.03.25-12.20.39:435][  0]LogWorld: UWorld::CleanupWorld for Untitled, bSessionEnded=true, bCleanupResources=true
[2023.03.25-12.20.39:435][  0]LogSlate: InvalidateAllWidgets triggered.  All widgets were invalidated
[2023.03.25-12.20.39:435][  0]MapCheck: New page: Map Check
[2023.03.25-12.20.39:435][  0]LightingResults: New page: Lighting Build
[2023.03.25-12.20.39:442][  0]LogAudio: Display: Audio Device unregistered from world 'None'.
[2023.03.25-12.20.39:445][  0]LogUObjectHash: Compacting FUObjectHashTables data took   0.37ms
[2023.03.25-12.20.44:999][  0]LogStaticMesh: StaticMesh /Game/StarterContent/Props/SM_Chair.SM_Chair should be resaved to improve async compilation performance.
[2023.03.25-12.20.45:045][  0]LogStaticMesh: StaticMesh /Game/StarterContent/Props/SM_Statue.SM_Statue should be resaved to improve async compilation performance.
[2023.03.25-12.20.45:114][  0]LogStaticMesh: StaticMesh /Game/StarterContent/Props/SM_TableRound.SM_TableRound should be resaved to improve async compilation performance.
[2023.03.25-12.20.45:958][  0]LogAudio: Display: Audio Device (ID: 1) registered with world 'Minimal_Default'.
[2023.03.25-12.20.45:958][  0]LogSubsystemCollection: Failed to initialize subsystem dependency (WorldPartitionSubsystem)
[2023.03.25-12.20.45:958][  0]LogChaos: FPhysicsSolverBase::AsyncDt:-1.000000
[2023.03.25-12.20.45:959][  0]LogAIModule: Creating AISystem for world Minimal_Default
[2023.03.25-12.20.47:458][  0]LogEditorServer: Finished looking for orphan Actors (0.000 secs)
[2023.03.25-12.20.47:468][  0]LogUObjectHash: Compacting FUObjectHashTables data took   0.42ms
[2023.03.25-12.20.47:470][  0]Cmd: MAP CHECKDEP NOCLEARLOG
[2023.03.25-12.20.47:470][  0]MapCheck: Map check complete: 0 Error(s), 0 Warning(s), took 0,21ms to complete.
[2023.03.25-12.20.47:470][  0]LogFileHelpers: Loading map 'Minimal_Default' took 8.043
[2023.03.25-12.20.47:505][  0]LogUnrealEdMisc: Total Editor Startup Time, took 34.343
[2023.03.25-12.20.47:505][  0]LogShaderCompilers: Display: ================================================
[2023.03.25-12.20.47:505][  0]LogShaderCompilers: Display: === FShaderJobCache stats ===
[2023.03.25-12.20.47:505][  0]LogShaderCompilers: Display: Total job queries 0, among them cache hits 0 (0.00%)
[2023.03.25-12.20.47:505][  0]LogShaderCompilers: Display: Tracking 0 distinct input hashes that result in 0 distinct outputs (0.00%)
[2023.03.25-12.20.47:505][  0]LogShaderCompilers: Display: RAM used: 0.00 MB (0.00 GB) of 1228.80 MB (1.20 GB) budget. Usage: 0.00%
[2023.03.25-12.20.47:505][  0]LogShaderCompilers: Display: === Shader Compilation stats ===
[2023.03.25-12.20.47:505][  0]LogShaderCompilers: Display: Shaders Compiled: 0
[2023.03.25-12.20.47:505][  0]LogShaderCompilers: Display: Jobs assigned 0, completed 0 (0.00%)
[2023.03.25-12.20.47:505][  0]LogShaderCompilers: Display: Time at least one job was in flight (either pending or executed): 0.00 s
[2023.03.25-12.20.47:505][  0]LogShaderCompilers: Display: ================================================
[2023.03.25-12.20.48:033][  0]LogSlate: Updating window title bar state: overlay mode, drag disabled, window buttons hidden, title bar hidden
[2023.03.25-12.20.48:086][  0]LogSlate: Updating window title bar state: overlay mode, drag disabled, window buttons hidden, title bar hidden
[2023.03.25-12.20.48:092][  0]LogSlate: Updating window title bar state: overlay mode, drag disabled, window buttons hidden, title bar hidden
[2023.03.25-12.20.48:098][  0]LogSlate: Updating window title bar state: overlay mode, drag disabled, window buttons hidden, title bar hidden
[2023.03.25-12.20.48:965][  0]LogPakFile: Display: Mounted Pak file 'D:/Games/Dauntless/Spellbreak/UE_5.0/FeaturePacks/StarterContent.upack', mount point: 'root:/'
[2023.03.25-12.20.48:965][  0]LogPakFile: Display: Mount point: 'root:/' is not mounted to a valid Root Path yet, assets in this pak file may not be accessible until a corresponding UFS Mount Point is added through FPackageName::RegisterMountPoint.
[2023.03.25-12.20.49:005][  0]LogPakFile: Display: Mounted Pak file 'D:/Games/Dauntless/Spellbreak/UE_5.0/FeaturePacks/TP_FirstPerson.upack', mount point: 'root:/'
[2023.03.25-12.20.49:005][  0]LogPakFile: Display: Mount point: 'root:/' is not mounted to a valid Root Path yet, assets in this pak file may not be accessible until a corresponding UFS Mount Point is added through FPackageName::RegisterMountPoint.
[2023.03.25-12.20.49:039][  0]LogPakFile: Display: Mounted Pak file 'D:/Games/Dauntless/Spellbreak/UE_5.0/FeaturePacks/TP_FirstPersonBP.upack', mount point: 'root:/'
[2023.03.25-12.20.49:039][  0]LogPakFile: Display: Mount point: 'root:/' is not mounted to a valid Root Path yet, assets in this pak file may not be accessible until a corresponding UFS Mount Point is added through FPackageName::RegisterMountPoint.
[2023.03.25-12.20.49:070][  0]LogPakFile: Display: Mounted Pak file 'D:/Games/Dauntless/Spellbreak/UE_5.0/FeaturePacks/TP_HandheldARBP.upack', mount point: 'root:/'
[2023.03.25-12.20.49:070][  0]LogPakFile: Display: Mount point: 'root:/' is not mounted to a valid Root Path yet, assets in this pak file may not be accessible until a corresponding UFS Mount Point is added through FPackageName::RegisterMountPoint.
[2023.03.25-12.20.49:113][  0]LogPakFile: Display: Mounted Pak file 'D:/Games/Dauntless/Spellbreak/UE_5.0/FeaturePacks/TP_ThirdPerson.upack', mount point: 'root:/'
[2023.03.25-12.20.49:113][  0]LogPakFile: Display: Mount point: 'root:/' is not mounted to a valid Root Path yet, assets in this pak file may not be accessible until a corresponding UFS Mount Point is added through FPackageName::RegisterMountPoint.
[2023.03.25-12.20.49:128][  0]LogPakFile: Display: Mounted Pak file 'D:/Games/Dauntless/Spellbreak/UE_5.0/FeaturePacks/TP_ThirdPersonBP.upack', mount point: 'root:/'
[2023.03.25-12.20.49:128][  0]LogPakFile: Display: Mount point: 'root:/' is not mounted to a valid Root Path yet, assets in this pak file may not be accessible until a corresponding UFS Mount Point is added through FPackageName::RegisterMountPoint.
[2023.03.25-12.20.49:159][  0]LogPakFile: Display: Mounted Pak file 'D:/Games/Dauntless/Spellbreak/UE_5.0/FeaturePacks/TP_TopDown.upack', mount point: 'root:/'
[2023.03.25-12.20.49:159][  0]LogPakFile: Display: Mount point: 'root:/' is not mounted to a valid Root Path yet, assets in this pak file may not be accessible until a corresponding UFS Mount Point is added through FPackageName::RegisterMountPoint.
[2023.03.25-12.20.49:167][  0]LogPakFile: Display: Mounted Pak file 'D:/Games/Dauntless/Spellbreak/UE_5.0/FeaturePacks/TP_TopDownBP.upack', mount point: 'root:/'
[2023.03.25-12.20.49:167][  0]LogPakFile: Display: Mount point: 'root:/' is not mounted to a valid Root Path yet, assets in this pak file may not be accessible until a corresponding UFS Mount Point is added through FPackageName::RegisterMountPoint.
[2023.03.25-12.20.49:180][  0]LogPakFile: Display: Mounted Pak file 'D:/Games/Dauntless/Spellbreak/UE_5.0/FeaturePacks/TP_VehicleAdvBP.upack', mount point: 'root:/'
[2023.03.25-12.20.49:180][  0]LogPakFile: Display: Mount point: 'root:/' is not mounted to a valid Root Path yet, assets in this pak file may not be accessible until a corresponding UFS Mount Point is added through FPackageName::RegisterMountPoint.
[2023.03.25-12.20.49:198][  0]LogPakFile: Display: Mounted Pak file 'D:/Games/Dauntless/Spellbreak/UE_5.0/FeaturePacks/TP_VirtualRealityBP.upack', mount point: 'root:/'
[2023.03.25-12.20.49:198][  0]LogPakFile: Display: Mount point: 'root:/' is not mounted to a valid Root Path yet, assets in this pak file may not be accessible until a corresponding UFS Mount Point is added through FPackageName::RegisterMountPoint.
[2023.03.25-12.20.50:064][  0]LogSlate: Took 0.000263 seconds to synchronously load lazily loaded font '../../../Engine/Content/Slate/Fonts/Roboto-Regular.ttf' (155K)
[2023.03.25-12.20.50:466][  0]LogSlate: Took 0.032582 seconds to synchronously load lazily loaded font '../../../Engine/Content/Slate/Fonts/Roboto-Italic.ttf' (157K)
[2023.03.25-12.20.50:503][  0]LogSlate: Took 0.027028 seconds to synchronously load lazily loaded font '../../../Engine/Content/Slate/Fonts/DroidSansMono.ttf' (77K)
[2023.03.25-12.20.52:435][  0]LogStall: Startup...
[2023.03.25-12.20.52:437][  0]LogStall: Startup complete.
[2023.03.25-12.20.52:465][  0]LogLoad: (Engine Initialization) Total time: 39.30 seconds
[2023.03.25-12.20.52:465][  0]LogLoad: (Engine Initialization) Total Blueprint compile time: 0.00 seconds
[2023.03.25-12.20.52:509][  0]LogAssetRegistry: Asset discovery search completed in 33.9259 seconds
[2023.03.25-12.20.52:550][  0]LogCollectionManager: Fixed up redirectors for 0 collections in 0.000003 seconds (updated 0 objects)
[2023.03.25-12.20.52:572][  0]LogContentStreaming: Texture pool size now 1000 MB
[2023.03.25-12.20.52:795][  0]LogSlate: Took 0.000120 seconds to synchronously load lazily loaded font '../../../Engine/Content/Slate/Fonts/Roboto-Bold.ttf' (160K)
[2023.03.25-12.20.53:956][  3]LogSlate: Took 0.000163 seconds to synchronously load lazily loaded font '../../../Engine/Content/Slate/Fonts/Roboto-Regular.ttf' (155K)
[2023.03.25-12.20.56:866][176]LogNiagara: Compiling System NiagaraSystem /Game/StarterContent/Fire_simulation.Fire_simulation took 11.272873 sec (time since issued), 29.731037 sec (combined shader worker time).
[2023.03.25-12.21.01:548][420]LogDerivedDataCache: C:/Users/admin/AppData/Local/UnrealEngine/Common/DerivedDataCache: Move collision when writing file C:/Users/admin/AppData/Local/UnrealEngine/Common/DerivedDataCache/Buckets/LegacyNIAGARASM/d1/09/1bdaeb1b433dd39089eaa9e4480c3c25c3cb.udd from 'Fire_simulation/HeatDistortion/ParticleGPUComputeScript'.
[2023.03.25-12.21.09:959][978]MapCheck: New page: Map Check
[2023.03.25-12.21.10:103][978]LogSlate: Took 0.000179 seconds to synchronously load lazily loaded font '../../../Engine/Content/Slate/Fonts/Roboto-BoldCondensed.ttf' (158K)
[2023.03.25-12.21.10:158][978]LightingResults: New page: Lighting Build - 25. ožu 2023. 14:21:10
[2023.03.25-12.21.10:231][978]LogSwarmInterface: [OpenConnection] Registering TCP channel ...
[2023.03.25-12.21.10:441][978]LogSwarmInterface: [OpenConnection] Connecting to agent ...
[2023.03.25-12.21.10:456][978]LogSwarmInterface: [TryOpenConnection] Testing the Agent
[2023.03.25-12.21.10:996][978]LogSwarmInterface: [TryOpenConnection] Opening Connection to Agent
[2023.03.25-12.21.10:996][978]LogSwarmInterface: [TryOpenConnection] Local Process ID is 3300
[2023.03.25-12.21.18:324][978]LogStaticLightingSystem: Warning: No importance volume found, so the scene bounding box was used.  You can optimize your scene's quality and lighting build times by adding importance volumes.
[2023.03.25-12.21.18:325][978]LogStaticLightingSystem: Running Lightmass w/ ImmediateImport mode ENABLED
[2023.03.25-12.21.18:325][978]LogStaticLightingSystem: Running Lightmass w/ ImmediateProcess mode ENABLED
[2023.03.25-12.21.18:325][978]LogStaticLightingSystem: Running Lightmass w/ Sorting mode ENABLED
[2023.03.25-12.21.18:325][978]LogStaticLightingSystem: Running Lightmass w/ Mapping paddings ENABLED
[2023.03.25-12.21.18:325][978]LogStaticLightingSystem: Running Lightmass w/ Mapping debug paddings DISABLED
[2023.03.25-12.21.18:533][978]LogEditorBuildUtils: Build time 0:08
[2023.03.25-12.21.18:677][980]LogUObjectHash: Compacting FUObjectHashTables data took   0.54ms
[2023.03.25-12.21.20:471][ 65]Job is a success!
[2023.03.25-12.21.21:083][ 66]LogVolumetricLightmapImport: Imported Volumetric Lightmap in 0.012s
[2023.03.25-12.21.21:088][ 66]LogVolumetricLightmapImport:      Indirection Texture 16x16x16 = 0.0Mb
[2023.03.25-12.21.21:088][ 66]LogVolumetricLightmapImport:      BrickData (all levels) 0.0Mb
[2023.03.25-12.21.21:088][ 66]LogVolumetricLightmapImport:      Bricks at depth
[2023.03.25-12.21.21:088][ 66]LogVolumetricLightmapImport:          0: 16.7% covering 100.0% of volume
[2023.03.25-12.21.21:088][ 66]LogVolumetricLightmapImport:          1: 16.7% covering 1.6% of volume
[2023.03.25-12.21.21:088][ 66]LogVolumetricLightmapImport:          2: 66.7% covering 0.1% of volume
[2023.03.25-12.21.21:088][ 66]LogVolumetricLightmapImport:      Bricks in each level
[2023.03.25-12.21.21:088][ 66]LogVolumetricLightmapImport:          Minimal_Default 			 6 bricks 	 100.0% (Persistent Level)
[2023.03.25-12.21.21:274][ 66]LogTexture: Display: Building textures: /Game/StarterContent/Maps/Minimal_Default_BuiltData.Minimal_Default_BuiltData:SkyOcclusion1_1 (TFO_AutoDXT, 512X256 X1X1) (Required Memory Estimate: 3.33334 MB), EncodeSpeed: Fast
[2023.03.25-12.21.21:429][ 66]LogTexture: Display: Building textures: /Game/StarterContent/Maps/Minimal_Default_BuiltData.Minimal_Default_BuiltData:HQ_Lightmap1_1 (TFO_AutoDXT, 512X512 X1X1) (Required Memory Estimate: 6.66666 MB), EncodeSpeed: Fast
[2023.03.25-12.21.21:457][ 66]LogTexture: Display: Building textures: /Game/StarterContent/Maps/Minimal_Default_BuiltData.Minimal_Default_BuiltData:LQ_Lightmap_1_1 (TFO_DXT1, 512X512 X1X1) (Required Memory Estimate: 6.66666 MB), EncodeSpeed: Fast
[2023.03.25-12.21.21:466][ 66]LogTexture: Display: Building textures: /Game/StarterContent/Maps/Minimal_Default_BuiltData.Minimal_Default_BuiltData:SkyOcclusion1_2 (TFO_AutoDXT, 64X32 X1X1) (Required Memory Estimate: 0.05209 MB), EncodeSpeed: Fast
[2023.03.25-12.21.21:467][ 66]LogTexture: Display: Building textures: /Game/StarterContent/Maps/Minimal_Default_BuiltData.Minimal_Default_BuiltData:HQ_Lightmap1_2 (TFO_AutoDXT, 64X64 X1X1) (Required Memory Estimate: 0.10416 MB), EncodeSpeed: Fast
[2023.03.25-12.21.21:467][ 66]LogTexture: Display: Building textures: /Game/StarterContent/Maps/Minimal_Default_BuiltData.Minimal_Default_BuiltData:LQ_Lightmap_1_2 (TFO_DXT1, 64X64 X1X1) (Required Memory Estimate: 0.10416 MB), EncodeSpeed: Fast
[2023.03.25-12.21.21:512][ 66]Lightmass on DESKTOP-63DL2G7: 2.16 sec total, 126 ms importing, 13 ms setup, 197 ms photons, 1.82 sec processing, 0 us extra exporting [7/7 mappings]. Threads: 9.10 sec total, 1.61 sec processing.
[2023.03.25-12.21.21:513][ 66]LogStaticLightingSystem: Minimal_Default_BuiltData storing lightmap data for 7 meshes in 2 LightmapResourceClusters (3.5 Meshes per cluster).
[2023.03.25-12.21.21:532][ 66]LogUObjectHash: Compacting FUObjectHashTables data took   0.42ms
[2023.03.25-12.21.21:554][ 66]LogStaticLightingSystem: Illumination: 11.3 sec (212 ms encoding lightmaps, 26 ms encoding shadowmaps)
[2023.03.25-12.21.21:554][ 66]LogStaticLightingSystem: Lightmap texture memory:  0.8 MB (0.8 MB streaming, 0.0 MB non-streaming), 4 textures
[2023.03.25-12.21.21:554][ 66]LogStaticLightingSystem: Shadowmap texture memory: 0.2 MB (0.2 MB streaming, 0.0 MB non-streaming), 2 textures
[2023.03.25-12.21.22:232][ 66]DumpUnbuiltLightIteractions
[2023.03.25-12.21.22:232][ 66]Lights with unbuilt interactions: 0
[2023.03.25-12.21.22:232][ 66]
[2023.03.25-12.21.22:232][ 66]Primitives with unbuilt interactions: 0
[2023.03.25-12.21.22:324][ 66]LogTexture: Display: Building textures: /Game/StarterContent/Maps/Minimal_Default_BuiltData.Minimal_Default_BuiltData:NewReflectionComponentTextureD6C57B644F03DADF4F2699848FAEA3C3 (BGRA8, 128X128 X1X1) (Required Memory Estimate: 2.499962 MB), EncodeSpeed: Fast
[2023.03.25-12.21.22:361][ 66]LogTexture: Display: Building textures: /Game/StarterContent/Maps/Minimal_Default_BuiltData.Minimal_Default_BuiltData:NewReflectionComponentTexture8D91C9AE4C6B8D628CDA3C848426284A (BGRA8, 128X128 X1X1) (Required Memory Estimate: 2.499962 MB), EncodeSpeed: Fast
[2023.03.25-12.21.22:422][ 67]Cmd: MAP CHECK NOTIFYRESULTS
[2023.03.25-12.21.22:422][ 67]MapCheck: New page: Minimal_Default - 25. ožu 2023. 14:21:22
[2023.03.25-12.21.22:696][ 67]MapCheck: Map check complete: 0 Error(s), 0 Warning(s), took 274,035ms to complete.
[2023.03.25-12.21.24:649][187]LogSlate: Took 0.014735 seconds to synchronously load lazily loaded font '../../../Engine/Content/Editor/Slate/Fonts/FontAwesome.ttf' (139K)
[2023.03.25-12.21.24:698][187]LogSlate: Took 0.017681 seconds to synchronously load lazily loaded font '../../../Engine/Content/Slate/Fonts/Roboto-Light.ttf' (167K)
[2023.03.25-12.21.30:405][458]LogActorFactory: Actor Factory attempting to spawn ParticleSystem /Game/StarterContent/Particles/P_Fire.P_Fire
[2023.03.25-12.21.30:416][458]LogActorFactory: Actor Factory attempting to spawn ParticleSystem /Game/StarterContent/Particles/P_Fire.P_Fire
[2023.03.25-12.21.30:430][458]LogActorFactory: Actor Factory spawned ParticleSystem /Game/StarterContent/Particles/P_Fire.P_Fire as actor: Emitter /Game/StarterContent/Maps/Minimal_Default.Minimal_Default:PersistentLevel.Emitter_0
[2023.03.25-12.21.30:431][458]LogActorFactory: Actor Factory spawned ParticleSystem /Game/StarterContent/Particles/P_Fire.P_Fire as actor: Emitter /Game/StarterContent/Maps/Minimal_Default.Minimal_Default:PersistentLevel.Emitter_0
[2023.03.25-12.21.31:018][502]LogActorFactory: Actor Factory attempting to spawn ParticleSystem /Game/StarterContent/Particles/P_Fire.P_Fire
[2023.03.25-12.21.31:019][502]LogActorFactory: Actor Factory attempting to spawn ParticleSystem /Game/StarterContent/Particles/P_Fire.P_Fire
[2023.03.25-12.21.31:019][502]LogActorFactory: Actor Factory spawned ParticleSystem /Game/StarterContent/Particles/P_Fire.P_Fire as actor: Emitter /Game/StarterContent/Maps/Minimal_Default.Minimal_Default:PersistentLevel.Emitter_1
[2023.03.25-12.21.31:020][502]LogActorFactory: Actor Factory spawned ParticleSystem /Game/StarterContent/Particles/P_Fire.P_Fire as actor: Emitter /Game/StarterContent/Maps/Minimal_Default.Minimal_Default:PersistentLevel.Emitter_1
[2023.03.25-12.22.17:547][542]LogDerivedDataCache: C:/Users/admin/AppData/Local/UnrealEngine/Common/DerivedDataCache: Maintenance finished in +00:00:00.446 and deleted 0 file(s) with total size 0 MiB.
[2023.03.25-12.22.18:167][542]LogSlate: Window 'Pick a starting point for your emitter' being destroyed
[2023.03.25-12.22.18:731][542]LogContentBrowser: Deferred new asset file creation: NewNiagaraEmitter
[2023.03.25-12.22.18:738][542]LogContentBrowser: Creating deferred item: NewNiagaraEmitter
[2023.03.25-12.22.18:749][543]LogContentBrowser: Renaming the item being created (Deferred Item: NewNiagaraEmitter).
[2023.03.25-12.22.36:128][710]LogContentBrowser: Attempting asset rename: NewNiagaraEmitter -> NE_Fire
[2023.03.25-12.22.36:136][710]LogContentBrowser: End creating deferred item NewNiagaraEmitter
[2023.03.25-12.22.37:373][783]LogAssetEditorSubsystem: Opening Asset editor for NiagaraEmitter /Game/NE_Fire.NE_Fire
[2023.03.25-12.22.38:861][783]LogChaos: FPhysicsSolverBase::AsyncDt:-1.000000
[2023.03.25-12.22.39:304][783]LogStaticMesh: Display: Waiting for static meshes to be ready 0/1 (/Engine/EditorMeshes/AssetViewer/Floor_Mesh) ...
